






























 
































 




































 







 

 
 

  #pragma system_include

 
 

 

  #pragma system_include






 















 
















 






 
 


  #pragma system_include

 
 

 

  #pragma system_include






 















 





                 



  

                 













 

   



                 



























 


  #pragma system_include

 
 
 


  #pragma system_include

 

   

 

   #pragma system_include






 




 

 


 


 

 

 

 

 

 

 

 

 

 














 












 




















 










 




















































































































 


 










 





















 















 













 








 












 











 










 









 











 









 









 









 









 














 














 
















 












 








 











 










 









 









 









 









 









 









 









 









 







 




 









 




 





 
















































 













 






 


   

  







 





 





 




 



 





 




 



 












 
   






 
  #pragma language = save 
  #pragma language = extended
  #pragma language = restore






 





 




 





 








                 




















 


                 

 

 
 

 

 

 

 



                 






 
 


  #pragma system_include

 
 

 

  #pragma system_include






 















 




 
 





 

                                 





                                 








                 

                 

                 

                 
                 



                 
                                 


  #pragma language=save
  #pragma language=extended
  typedef long long _Longlong;
  typedef unsigned long long _ULonglong;
  #pragma language=restore

  typedef unsigned short int _Wchart;
  typedef unsigned short int _Wintt;



                 

typedef signed int  _Ptrdifft;
typedef unsigned int     _Sizet;

 

                 



 
  typedef struct __va_list
  {
    char  *_Ap;
  } __va_list;

  typedef __va_list __Va_list;


__intrinsic __nounwind void __iar_Atexit(void (*)(void));


  typedef struct
  {        
    unsigned int _Wchar;
    unsigned int _State;
  } _Mbstatet;





typedef struct
{        
  _Longlong _Off;     
  _Mbstatet _Wstate;
} _Fpost;




                 














 


  #pragma system_include





 






















































































 

 


  
 

   


  





  #pragma language=save 
  #pragma language=extended
  __intrinsic __nounwind void __iar_dlib_perthread_initialize(void  *);
  __intrinsic __nounwind void  *__iar_dlib_perthread_allocate(void);
  __intrinsic __nounwind void __iar_dlib_perthread_destroy(void);
  __intrinsic __nounwind void __iar_dlib_perthread_deallocate(void  *);



  #pragma segment = "__DLIB_PERTHREAD" 
  #pragma segment = "__DLIB_PERTHREAD_init" 









   
  void  *__iar_dlib_perthread_access(void  *);
  #pragma language=restore








     
  



   

  


  
  typedef void *__iar_Rmtx;
  
  
  __intrinsic __nounwind void __iar_system_Mtxinit(__iar_Rmtx *m);
  __intrinsic __nounwind void __iar_system_Mtxdst(__iar_Rmtx *m);
  __intrinsic __nounwind void __iar_system_Mtxlock(__iar_Rmtx *m);
  __intrinsic __nounwind void __iar_system_Mtxunlock(__iar_Rmtx *m);

  __intrinsic __nounwind void __iar_file_Mtxinit(__iar_Rmtx *m);
  __intrinsic __nounwind void __iar_file_Mtxdst(__iar_Rmtx *m);
  __intrinsic __nounwind void __iar_file_Mtxlock(__iar_Rmtx *m);
  __intrinsic __nounwind void __iar_file_Mtxunlock(__iar_Rmtx *m);

  
 
  __intrinsic __nounwind void __iar_clearlocks(void);



  



  


  typedef unsigned _Once_t;

  








                 


                 
  
  
    
  _Pragma("object_attribute = __weak") __intrinsic __nounwind void __iar_Locksyslock_Locale(void);
  _Pragma("object_attribute = __weak") __intrinsic __nounwind void __iar_Locksyslock_Malloc(void);
  _Pragma("object_attribute = __weak") __intrinsic __nounwind void __iar_Locksyslock_Stream(void);
  _Pragma("object_attribute = __weak") __intrinsic __nounwind void __iar_Locksyslock_Debug(void);
  _Pragma("object_attribute = __weak") __intrinsic __nounwind void __iar_Locksyslock_StaticGuard(void);
  _Pragma("object_attribute = __weak") __intrinsic __nounwind void __iar_Locksyslock(unsigned int);
  _Pragma("object_attribute = __weak") __intrinsic __nounwind void __iar_Unlocksyslock_Locale(void);
  _Pragma("object_attribute = __weak") __intrinsic __nounwind void __iar_Unlocksyslock_Malloc(void);
  _Pragma("object_attribute = __weak") __intrinsic __nounwind void __iar_Unlocksyslock_Stream(void);
  _Pragma("object_attribute = __weak") __intrinsic __nounwind void __iar_Unlocksyslock_Debug(void);
  _Pragma("object_attribute = __weak") __intrinsic __nounwind void __iar_Unlocksyslock_StaticGuard(void);
  _Pragma("object_attribute = __weak") __intrinsic __nounwind void __iar_Unlocksyslock(unsigned int);

  _Pragma("object_attribute = __weak") __intrinsic __nounwind void __iar_Initdynamicfilelock(__iar_Rmtx *);
  _Pragma("object_attribute = __weak") __intrinsic __nounwind void __iar_Dstdynamicfilelock(__iar_Rmtx *);
  _Pragma("object_attribute = __weak") __intrinsic __nounwind void __iar_Lockdynamicfilelock(__iar_Rmtx *);
  _Pragma("object_attribute = __weak") __intrinsic __nounwind void __iar_Unlockdynamicfilelock(__iar_Rmtx *);
  
  

                 


                 







 


 
  typedef signed char   int8_t;
  typedef unsigned char uint8_t;

  typedef signed short int   int16_t;
  typedef unsigned short int uint16_t;

  typedef signed int   int32_t;
  typedef unsigned int uint32_t;

  #pragma language=save
  #pragma language=extended
  typedef signed long long int   int64_t;
  typedef unsigned long long int uint64_t;
  #pragma language=restore


 
typedef signed char   int_least8_t;
typedef unsigned char uint_least8_t;

typedef signed short int   int_least16_t;
typedef unsigned short int uint_least16_t;

typedef signed int   int_least32_t;
typedef unsigned int uint_least32_t;

 
  #pragma language=save
  #pragma language=extended
  typedef signed long long int int_least64_t;
  #pragma language=restore
  #pragma language=save
  #pragma language=extended
  typedef unsigned long long int uint_least64_t;
  #pragma language=restore



 
typedef signed int   int_fast8_t;
typedef unsigned int uint_fast8_t;

typedef signed int   int_fast16_t;
typedef unsigned int uint_fast16_t;

typedef signed int   int_fast32_t;
typedef unsigned int uint_fast32_t;

  #pragma language=save
  #pragma language=extended
  typedef signed long long int int_fast64_t;
  #pragma language=restore
  #pragma language=save
  #pragma language=extended
  typedef unsigned long long int uint_fast64_t;
  #pragma language=restore

 
#pragma language=save
#pragma language=extended
typedef signed long long int   intmax_t;
typedef unsigned long long int uintmax_t;
#pragma language=restore


 
typedef signed long int   intptr_t;
typedef unsigned long int uintptr_t;

 
typedef int __data_intptr_t; typedef unsigned int __data_uintptr_t;

 

























 














 






 

 
typedef uint8_t   bool_t;

typedef uint8_t    index_t;

 


 





typedef volatile signed char vint8_t;
typedef volatile unsigned char vuint8_t;
typedef volatile signed short vint16_t;
typedef volatile unsigned short vuint16_t;
typedef volatile signed long vint32_t;
typedef volatile unsigned long vuint32_t;

typedef unsigned char uintn8_t;
typedef unsigned long uintn32_t;


 


 
typedef uint32_t instanceId_t;






 









 





 





 





 







 




 




 





 





 





 





 





 





 





 





 





 





 





 





 





 







 





 





 





 





 





 
typedef uint16_t tmrTimerTicks16_t;





 
typedef uint32_t tmrTimerTicks32_t;





 
typedef uint64_t tmrTimerTicks64_t;




 
typedef uint32_t    tmrTimeInMilliseconds_t;




 
typedef uint32_t    tmrTimeInMinutes_t;




 
typedef uint32_t    tmrTimeInSeconds_t;




 
typedef uint8_t     tmrTimerID_t;




 
typedef uint8_t     tmrTimerType_t;




 
typedef void ( *pfTmrCallBack_t ) ( void * );






 

 





 







 
extern void TMR_Init
(
    void
);






 
extern void TMR_NotifyClkChanged
(
    uint32_t clkKhz
);






 
extern tmrTimerID_t TMR_AllocateTimer
(
    void
);






 
extern bool_t TMR_AreAllTimersOff
(
    void
);








 
extern void TMR_FreeTimer
(
    tmrTimerID_t timerID
);







 
extern bool_t TMR_IsTimerActive
(
    tmrTimerID_t timerID
);







 
extern bool_t TMR_IsTimerReady
(
    tmrTimerID_t timerID
);







 
extern uint32_t TMR_GetRemainingTime
(
    tmrTimerID_t tmrID
);













 
extern void TMR_StartTimer
(
    tmrTimerID_t timerID,
    tmrTimerType_t timerType,
    tmrTimeInMilliseconds_t timeInMilliseconds,
    void (*pfTimerCallBack)(void *),
    void *param
);




















 
extern void TMR_StartLowPowerTimer
(
    tmrTimerID_t timerId,
    tmrTimerType_t timerType,
    uint32_t timeIn,
    void (*pfTmrCallBack)(void *),
    void *param
);











 
extern void TMR_StartMinuteTimer
(
    tmrTimerID_t timerId,
    tmrTimeInMinutes_t timeInMinutes,
    void (*pfTmrCallBack)(void *),
    void *param
);











 
extern void TMR_StartSecondTimer
(
    tmrTimerID_t timerId,
    tmrTimeInSeconds_t timeInSeconds,
    void (*pfTmrCallBack)(void *),
    void *param
);










 
extern void TMR_StartIntervalTimer
(
    tmrTimerID_t timerID,
    tmrTimeInMilliseconds_t timeInMilliseconds,
    void (*pfTimerCallBack)(void *),
    void *param
);










 
extern void TMR_StartSingleShotTimer
(
    tmrTimerID_t timerID,
    tmrTimeInMilliseconds_t timeInMilliseconds,
    void (*pfTimerCallBack)(void *),
    void *param
);









 
extern void TMR_StopTimer
(
    tmrTimerID_t timerID
);








 
extern void TMR_Thread
(
    void const *param
);







 
extern void TMR_EnableTimer
(
    tmrTimerID_t tmrID
);









 
extern uint16_t TMR_NotCountedTicksBeforeSleep
(
    void
);








 
extern void TMR_SyncLpmTimers
(
    uint32_t sleepDurationTmrTicks
);







 
void TMR_MakeTMRThreadReady
(
 void
);






 
extern tmrTimerTicks32_t TmrTicksFromMilliseconds
(
    tmrTimeInMilliseconds_t milliseconds
);






 
extern uint32_t TMR_GetTimerFreq(void);







 








 







 







 








 

 







 











 
bool_t TMR_RTCIsOscStarted(void);







 
void TMR_RTCInit(void);






 
uint64_t TMR_RTCGetTimestamp(void);






 
void TMR_RTCSetTime(uint64_t microseconds);






 
void TMR_RTCSetAlarm(uint64_t seconds, pfTmrCallBack_t callback, void *param);






 
void TMR_RTCSetAlarmRelative(uint32_t seconds, pfTmrCallBack_t callback, void *param);






 































 





 









 




 




 





 




 







 



 



 

 






 




 
typedef uint8_t LED_t;




 
typedef enum LED_OpMode_tag{
    gLedFlashing_c,        
    gLedStopFlashing_c,    
    gLedBlip_c,            
    gLedOn_c,              
    gLedOff_c,             
    gLedToggle_c           
} LED_OpMode_t;





 
typedef uint8_t LedState_t;





 







 
extern void LED_Init( void );






 
extern void LED_UnInit( void );






 
extern void LED_Operate( LED_t led, LED_OpMode_t operation );






 
extern void LED_TurnOnLed( LED_t LEDNr );






 
extern void LED_TurnOffLed( LED_t LEDNr );






 
extern void LED_ToggleLed( LED_t LEDNr );






 
extern void LED_TurnOffAllLeds( void );






 
extern void LED_TurnOnAllLeds( void );






 
extern void LED_StopFlashingAllLeds( void );





 





 
void LED_StartFlash( LED_t LEDNr );







 
extern void LED_StopFlash( LED_t LEDNr );






 
extern void LED_StartSerialFlash( uint8_t LEDStartPosition );






 
extern void LED_SetHex( uint8_t hexValue );








 
extern void LED_SetLed( LED_t LEDNr, LedState_t state );










































 










 



 


 

 






















 







 



 


 
 
 





 








 


 
 

 

  #pragma system_include






 















 





  #pragma system_include



 


 


#pragma language=save
#pragma language=extended

__intrinsic __nounwind void    __no_operation(void);

__intrinsic __nounwind void    __disable_interrupt(void);
__intrinsic __nounwind void    __enable_interrupt(void);

typedef unsigned long __istate_t;

__intrinsic __nounwind __istate_t __get_interrupt_state(void);
__intrinsic __nounwind void __set_interrupt_state(__istate_t);


 
__intrinsic __nounwind unsigned long __get_PSR( void );
__intrinsic __nounwind unsigned long __get_IPSR( void );
_Pragma("function_effects = hidden_state, always_returns") __intrinsic __nounwind unsigned long __get_MSP( void );
__intrinsic __nounwind void          __set_MSP( unsigned long );
_Pragma("function_effects = hidden_state, always_returns") __intrinsic __nounwind unsigned long __get_PSP( void );
__intrinsic __nounwind void          __set_PSP( unsigned long );
_Pragma("function_effects = hidden_state, always_returns") __intrinsic __nounwind unsigned long __get_PRIMASK( void );
__intrinsic __nounwind void          __set_PRIMASK( unsigned long );
_Pragma("function_effects = hidden_state, always_returns") __intrinsic __nounwind unsigned long __get_CONTROL( void );
__intrinsic __nounwind void          __set_CONTROL( unsigned long );


__intrinsic __nounwind void __disable_fiq(void);
__intrinsic __nounwind void __enable_fiq(void);


 

_Pragma("function_effects = no_state, always_returns") __intrinsic __nounwind unsigned long __SWP( unsigned long, volatile unsigned long * );
_Pragma("function_effects = no_state, always_returns") __intrinsic __nounwind unsigned char __SWPB( unsigned char, volatile unsigned char * );

typedef unsigned long __ul;


 
__intrinsic __nounwind void          __MCR( unsigned __constrange(0,15) coproc, unsigned __constrange(0,8) opcode_1, __ul src,
                                 unsigned __constrange(0,15) CRn, unsigned __constrange(0,15) CRm, unsigned __constrange(0,8) opcode_2 );
__intrinsic __nounwind unsigned long __MRC( unsigned __constrange(0,15) coproc, unsigned __constrange(0,8) opcode_1,
                                 unsigned __constrange(0,15) CRn, unsigned __constrange(0,15) CRm, unsigned __constrange(0,8) opcode_2 );
__intrinsic __nounwind void          __MCR2( unsigned __constrange(0,15) coproc, unsigned __constrange(0,8) opcode_1, __ul src,
                                  unsigned __constrange(0,15) CRn, unsigned __constrange(0,15) CRm, unsigned __constrange(0,8) opcode_2 );
__intrinsic __nounwind unsigned long __MRC2( unsigned __constrange(0,15) coproc, unsigned __constrange(0,8) opcode_1,
                                  unsigned __constrange(0,15) CRn, unsigned __constrange(0,15) CRm, unsigned __constrange(0,8) opcode_2 );

 
__intrinsic __nounwind void __LDC( unsigned __constrange(0,15) coproc, unsigned __constrange(0,15) CRn, volatile __ul const *src);
__intrinsic __nounwind void __LDCL( unsigned __constrange(0,15) coproc, unsigned __constrange(0,15) CRn, volatile __ul const *src);
__intrinsic __nounwind void __LDC2( unsigned __constrange(0,15) coproc, unsigned __constrange(0,15) CRn, volatile __ul const *src);
__intrinsic __nounwind void __LDC2L( unsigned __constrange(0,15) coproc, unsigned __constrange(0,15) CRn, volatile __ul const *src);

 
__intrinsic __nounwind void __STC( unsigned __constrange(0,15) coproc, unsigned __constrange(0,15) CRn, volatile __ul *dst);
__intrinsic __nounwind void __STCL( unsigned __constrange(0,15) coproc, unsigned __constrange(0,15) CRn, volatile __ul *dst);
__intrinsic __nounwind void __STC2( unsigned __constrange(0,15) coproc, unsigned __constrange(0,15) CRn, volatile __ul *dst);
__intrinsic __nounwind void __STC2L( unsigned __constrange(0,15) coproc, unsigned __constrange(0,15) CRn, volatile __ul *dst);

 
__intrinsic __nounwind void __LDC_noidx( unsigned __constrange(0,15) coproc, unsigned __constrange(0,15) CRn, volatile __ul const *src,
                              unsigned __constrange(0,255) option);

__intrinsic __nounwind void __LDCL_noidx( unsigned __constrange(0,15) coproc, unsigned __constrange(0,15) CRn, volatile __ul const *src,
                               unsigned __constrange(0,255) option);

__intrinsic __nounwind void __LDC2_noidx( unsigned __constrange(0,15) coproc, unsigned __constrange(0,15) CRn, volatile __ul const *src,
                               unsigned __constrange(0,255) option);

__intrinsic __nounwind void __LDC2L_noidx( unsigned __constrange(0,15) coproc, unsigned __constrange(0,15) CRn, volatile __ul const *src,
                                unsigned __constrange(0,255) option);

 
__intrinsic __nounwind void __STC_noidx( unsigned __constrange(0,15) coproc, unsigned __constrange(0,15) CRn, volatile __ul *dst,
                              unsigned __constrange(0,255) option);

__intrinsic __nounwind void __STCL_noidx( unsigned __constrange(0,15) coproc, unsigned __constrange(0,15) CRn, volatile __ul *dst,
                               unsigned __constrange(0,255) option);

__intrinsic __nounwind void __STC2_noidx( unsigned __constrange(0,15) coproc, unsigned __constrange(0,15) CRn, volatile __ul *dst,
                               unsigned __constrange(0,255) option);

__intrinsic __nounwind void __STC2L_noidx( unsigned __constrange(0,15) coproc, unsigned __constrange(0,15) CRn, volatile __ul *dst,
                                unsigned __constrange(0,255) option);

 
__intrinsic __nounwind unsigned long __get_APSR( void );
__intrinsic __nounwind void          __set_APSR( unsigned long );

 
__intrinsic __nounwind unsigned long __get_FPSCR( void );
__intrinsic __nounwind void __set_FPSCR( unsigned long );

 
_Pragma("function_effects = no_state, always_returns") __intrinsic __nounwind unsigned char __CLZ( unsigned long );

 

_Pragma("function_effects = hidden_state, always_returns") __intrinsic __nounwind int         __QCFlag( void );
_Pragma("function_effects = hidden_state, always_returns") __intrinsic __nounwind void __reset_QC_flag( void );

_Pragma("function_effects = no_state, always_returns") __intrinsic __nounwind signed long __SMUL( signed short, signed short );

 
_Pragma("function_effects = no_state, always_returns") __intrinsic __nounwind unsigned long __REV( unsigned long );
_Pragma("function_effects = no_state, always_returns") __intrinsic __nounwind signed long __REVSH( short );

_Pragma("function_effects = no_state, always_returns") __intrinsic __nounwind unsigned long __REV16( unsigned long );
_Pragma("function_effects = no_state, always_returns") __intrinsic __nounwind unsigned long __RBIT( unsigned long );

_Pragma("function_effects = no_state, no_write(1), always_returns") __intrinsic __nounwind unsigned char  __LDREXB( volatile unsigned char const * );
_Pragma("function_effects = no_state, no_write(1), always_returns") __intrinsic __nounwind unsigned short __LDREXH( volatile unsigned short const * );
_Pragma("function_effects = no_state, no_write(1), always_returns") __intrinsic __nounwind unsigned long  __LDREX ( volatile unsigned long const * );
_Pragma("function_effects = no_state, no_write(1), always_returns") __intrinsic __nounwind unsigned long long __LDREXD( volatile unsigned long long const * );

_Pragma("function_effects = no_state, no_read(2), always_returns") __intrinsic __nounwind unsigned long  __STREXB( unsigned char, volatile unsigned char * );
_Pragma("function_effects = no_state, no_read(2), always_returns") __intrinsic __nounwind unsigned long  __STREXH( unsigned short, volatile unsigned short * );
_Pragma("function_effects = no_state, no_read(2), always_returns") __intrinsic __nounwind unsigned long  __STREX ( unsigned long, volatile unsigned long * );
_Pragma("function_effects = no_state, no_read(2), always_returns") __intrinsic __nounwind unsigned long  __STREXD( unsigned long long, volatile unsigned long long * );

__intrinsic __nounwind void __CLREX( void );

__intrinsic __nounwind void __SEV( void );
__intrinsic __nounwind void __WFE( void );
__intrinsic __nounwind void __WFI( void );
__intrinsic __nounwind void __YIELD( void );

__intrinsic __nounwind void __PLI( volatile void const * );
__intrinsic __nounwind void __PLD( volatile void const * );
__intrinsic __nounwind void __PLDW( volatile void const * );

_Pragma("function_effects = hidden_state, always_returns") __intrinsic __nounwind   signed long __SSAT     (unsigned long val,
                                      unsigned int __constrange( 1, 32 ) sat );
_Pragma("function_effects = hidden_state, always_returns") __intrinsic __nounwind unsigned long __USAT     (unsigned long val,
                                      unsigned int __constrange( 0, 31 ) sat );



 
__intrinsic __nounwind void __DMB(void);
__intrinsic __nounwind void __DSB(void);
__intrinsic __nounwind void __ISB(void);

 
__intrinsic __nounwind unsigned long __TT(unsigned long);
__intrinsic __nounwind unsigned long __TTT(unsigned long);
__intrinsic __nounwind unsigned long __TTA(unsigned long);
__intrinsic __nounwind unsigned long __TTAT(unsigned long);


__intrinsic __nounwind unsigned long __get_LR(void);
__intrinsic __nounwind void __set_LR(unsigned long);

__intrinsic __nounwind unsigned long __get_SP(void);
__intrinsic __nounwind void __set_SP(unsigned long);

#pragma language=restore






 
    typedef unsigned char           bool;
typedef unsigned char           byte;
typedef unsigned short          word;
typedef unsigned long           dword;
typedef unsigned long long      dlong;
typedef unsigned char           TPE_ErrCode;
typedef float                   TPE_Float;
typedef char                    char_t;

 
typedef signed char             int8;
typedef signed short int        int16;
typedef signed long int         int32;

typedef unsigned char           uint8;
typedef unsigned short int      uint16;
typedef unsigned long int       uint32;


 
 
 

 

 


 

 






 

 

 

 

 

 

 






 





 
typedef uint32_t LDD_TPinMask;          
typedef uint16_t LDD_TError;            
typedef uint32_t LDD_TEventMask;        
typedef uint8_t LDD_TClockConfiguration;  
typedef void LDD_TDeviceData;           
typedef void* LDD_TDeviceDataPtr;       
typedef void LDD_TData;                 
typedef void LDD_TUserData;             

 
typedef enum {
  DOM_NONE,
  DOM_RUN,
  DOM_WAIT,
  DOM_SLEEP,
  DOM_STOP
} LDD_TDriverOperationMode;

typedef uint16_t LDD_TDriverState;      
typedef void LDD_TCallbackParam;        
typedef void (* LDD_TCallback)(LDD_TCallbackParam *CallbackParam);  

extern LDD_TDeviceData *PE_LDD_DeviceDataList[];  


 
extern void PE_FillMemory(register void* SourceAddressPtr, register uint8_t c, register uint32_t len);






 
 
typedef void *LDD_RTOS_TISRParameter;

 
typedef struct {
  void (*isrFunction)(LDD_RTOS_TISRParameter);  
  LDD_RTOS_TISRParameter isrData;       
} LDD_RTOS_TISRVectorSettings;






 






 

 
typedef enum {
  DIR_UP,                               
  DIR_DOWN                              
} LDD_TimerUnit_TCounterDirection;

 
typedef enum                          {
  OUTPUT_NONE,                          
  OUTPUT_TOGGLE,                        
  OUTPUT_CLEAR,                         
  OUTPUT_SET                            
} LDD_TimerUnit_TOutAction;

 
typedef enum  {
  EDGE_NONE,                            
  EDGE_RISING,                          
  EDGE_FALLING,                         
  EDGE_BOTH                             
} LDD_TimerUnit_TEdge;

typedef float LDD_TimerUnit_Tfloat;     





 





 

typedef float LDD_PPG_Tfloat;           





 





 





 





 





 





 





 

typedef float LDD_RealTime_Tfloat;      





 

 
typedef struct {
  uint16_t Hour;                        
  uint16_t Min;                         
  uint16_t Sec;                         
  uint16_t Sec100;                      
} LDD_TimeDate_TTimeRec;

 
typedef struct {
  uint16_t Year;                        
  uint16_t Month;                       
  uint16_t Day;                         
  uint16_t DayOfWeek;                   
} LDD_TimeDate_TDateRec;





 



typedef uint32_t LDD_SERIAL_TError;     

typedef uint8_t LDD_SERIAL_TDataWidth;  

typedef uint16_t LDD_SERIAL_TSize;      

typedef uint8_t LDD_SERIAL_TBaudMode;   

 
typedef enum {
  LDD_SERIAL_PARITY_UNDEF,              
  LDD_SERIAL_PARITY_NONE,               
  LDD_SERIAL_PARITY_ODD,                
  LDD_SERIAL_PARITY_EVEN,               
  LDD_SERIAL_PARITY_MARK,               
  LDD_SERIAL_PARITY_SPACE               
} LDD_SERIAL_TParity;

 
typedef enum {
  LDD_SERIAL_STOP_BIT_LEN_UNDEF,        
  LDD_SERIAL_STOP_BIT_LEN_1,            
  LDD_SERIAL_STOP_BIT_LEN_1_5,          
  LDD_SERIAL_STOP_BIT_LEN_2             
} LDD_SERIAL_TStopBitLen;

 
typedef struct {
  uint32_t ReceivedChars;               
  uint32_t SentChars;                   
  uint32_t ReceivedBreaks;              
  uint32_t ParityErrors;                
  uint32_t FramingErrors;               
  uint32_t OverrunErrors;               
  uint32_t NoiseErrors;                 
} LDD_SERIAL_TStats;

 
typedef enum {
  LOOPMODE_UNDEF,                       
  LOOPMODE_NORMAL,                      
  LOOPMODE_AUTO_ECHO,                   
  LOOPMODE_LOCAL_LOOPBACK,              
  LOOPMODE_REMOTE_LOOPBACK              
} LDD_SERIAL_TLoopMode;






 






typedef uint32_t LDD_ADC_TErrorMask;    

 
typedef struct {
  uint32_t Channel0_31PinMask;          
  uint32_t Channel32_63PinMask;         
  uint16_t TriggerPinMask;              
  uint8_t  VoltRefPinMask;              
} LDD_ADC_TPinMask;

 
typedef struct {
  uint8_t ChannelIdx;                   
} LDD_ADC_TSample;

 
typedef enum {
  LDD_ADC_LESS_THAN                     = 0x00u,  
  LDD_ADC_GREATER_THAN_OR_EQUAL         = 0x01u,  
  LDD_ADC_INSIDE_RANGE_INCLUSIVE        = 0x02u,  
  LDD_ADC_INSIDE_RANGE_NOT_INCLUSIVE    = 0x03u,  
  LDD_ADC_OUTSIDE_RANGE_INCLUSIVE       = 0x04u,  
  LDD_ADC_OUTSIDE_RANGE_NOT_INCLUSIVE   = 0x05u  
} LDD_ADC_TCompareMode;





 




typedef uint16_t LDD_I2C_TSize;         
typedef uint16_t LDD_I2C_TAddr;         
typedef uint16_t LDD_I2C_TErrorMask;    
typedef bool LDD_I2C_TMode;             

 
typedef enum {
  LDD_I2C_ADDRTYPE_7BITS,               
  LDD_I2C_ADDRTYPE_10BITS,              
  LDD_I2C_ADDRTYPE_GENERAL_CALL         
} LDD_I2C_TAddrType;

 
typedef enum {
  LDD_I2C_NO_SEND_STOP,                 
  LDD_I2C_SEND_STOP                     
} LDD_I2C_TSendStop;

 
typedef enum {
  LDD_I2C_BUSY,                         
  LDD_I2C_IDLE                          
} LDD_I2C_TBusState;

 
typedef enum {
  LDD_I2C_ACK_BYTE,                     
  LDD_I2C_NACK_BYTE                     
} LDD_I2C_TAckType;

 
typedef struct {
  uint32_t MasterSentChars;             
  uint32_t MasterReceivedChars;         
  uint32_t MasterNacks;                 
  uint32_t ArbitLost;                   
  uint32_t SlaveSentChars;              
  uint32_t SlaveReceivedChars;          
  uint32_t SlaveTxUnderrun;             
  uint32_t SlaveRxOverrun;              
  uint32_t SlaveGeneralCallAddr;        
  uint32_t SlaveSmBusCallAddr;          
  uint32_t SlaveSmBusAlertResponse;     
  uint32_t SCLLowTimeout;               
  uint32_t SDALowTimeout;               
} LDD_I2C_TStats;






 


typedef uint8_t LDD_SegLCD_TPinIndex;   
typedef uint8_t LDD_SegLCD_TFrontplaneData;  
typedef uint8_t LDD_SegLCD_TFaultValue;  

 
typedef enum {
  LDD_SEGLCD_BLINK_OFF,                 
  LDD_SEGLCD_BLINK_ALL,                 
  LDD_SEGLCD_BLINK_ALL_ALTERNATE        
} LDD_SegLCD_TBlinking;

 
typedef enum {
  LDD_SEGLCD_BLANK_STATE,               
  LDD_SEGLCD_NORMAL_STATE,              
  LDD_SEGLCD_ALTERNATE_STATE            
} LDD_SegLCD_TSetBlank;

 
typedef enum {
  LDD_SEGLCD_BACKPLANE_PIN,             
  LDD_SEGLCD_FRONTPLANE_PIN             
} LDD_SegLCD_TPinType;






 



typedef uint32_t LDD_GPIO_TBitField;    

 
typedef enum {
  LDD_GPIO_DISABLED = 0x00u,            
  LDD_GPIO_LOW      = 0x00080000u,      
  LDD_GPIO_HIGH     = 0x000C0000u,      
  LDD_GPIO_RISING   = 0x00090000u,      
  LDD_GPIO_FALLING  = 0x000A0000u,      
  LDD_GPIO_BOTH     = 0x000B0000u       
} LDD_GPIO_TEventCondition;             






 





 



typedef uint8_t LDD_ETH_TMACAddress[6];  

 
typedef enum {
  LDD_ETH_FULL_DUPLEX,                  
  LDD_ETH_HALF_DUPLEX                   
} LDD_ETH_TDuplexMode;

 
typedef enum {
  LDD_ETH_PROMISC,                      
  LDD_ETH_REJECT_BC,                    
  LDD_ETH_ACCEPT_BC                     
} LDD_ETH_TFilterMode;

 
typedef enum {
  LDD_ETH_ENABLED,                      
  LDD_ETH_ENABLED_WITH_WAKEUP,          
  LDD_ETH_DISABLED                      
} LDD_ETH_TSleepMode;

 
typedef struct {
  uint8_t  *DataPtr;                    
  uint16_t Size;                        
} LDD_ETH_TBufferDesc;

typedef LDD_ETH_TBufferDesc* LDD_ETH_TBufferDescPtr;  

 
typedef struct {
  uint32_t TxRMONDropEvents;            
  uint32_t TxRMONOctets;                
  uint32_t TxRMONPackets;               
  uint32_t TxRMONBroadcastPackets;      
  uint32_t TxRMONMulticastPackets;      
  uint32_t TxRMONCRCAlignErrors;        
  uint32_t TxRMONUndersizePackets;      
  uint32_t TxRMONOversizePackets;       
  uint32_t TxRMONFragments;             
  uint32_t TxRMONJabbers;               
  uint32_t TxRMONCollisions;            
  uint32_t TxRMONPackets64Octets;       
  uint32_t TxRMONPackets65To127Octets;  
  uint32_t TxRMONPackets128To255Octets;  
  uint32_t TxRMONPackets256To511Octets;  
  uint32_t TxRMONPackets512To1023Octets;  
  uint32_t TxRMONPackets1024To2047Octets;  
  uint32_t TxRMONPacketsGreaterThan2048Octets;  
  uint32_t TxIEEEDrop;                  
  uint32_t TxIEEEFrameOK;               
  uint32_t TxIEEESingleCollision;       
  uint32_t TxIEEEMultipleCollisions;    
  uint32_t TxIEEEDeferralDelay;         
  uint32_t TxIEEELateCollision;         
  uint32_t TxIEEEExcessiveCollision;    
  uint32_t TxIEEEFIFOUnderrun;          
  uint32_t TxIEEECarrierSenseError;     
  uint32_t TxIEEESQEError;              
  uint32_t TxIEEEPauseFrame;            
  uint32_t TxIEEEOctetsOK;              
  uint32_t RxRMONDropEvents;            
  uint32_t RxRMONOctets;                
  uint32_t RxRMONPackets;               
  uint32_t RxRMONBroadcastPackets;      
  uint32_t RxRMONMulticastPackets;      
  uint32_t RxRMONCRCAlignErrors;        
  uint32_t RxRMONUndersizePackets;      
  uint32_t RxRMONOversizePackets;       
  uint32_t RxRMONFragments;             
  uint32_t RxRMONJabbers;               
  uint32_t RxRMONPackets64Octets;       
  uint32_t RxRMONPackets65To127Octets;  
  uint32_t RxRMONPackets128To255Octets;  
  uint32_t RxRMONPackets256To511Octets;  
  uint32_t RxRMONPackets512To1023Octets;  
  uint32_t RxRMONPackets1024To2047Octets;  
  uint32_t RxRMONPacketsGreaterThan2048Octets;  
  uint32_t RxIEEEDrop;                  
  uint32_t RxIEEEFrameOK;               
  uint32_t RxIEEECRCError;              
  uint32_t RxIEEEAlignmentError;        
  uint32_t RxIEEEFIFOOverflow;          
  uint32_t RxIEEEPauseFrame;            
  uint32_t RxIEEEOctetsOK;              
} LDD_ETH_TStats;





 

typedef uint8_t LDD_CAN_TMBIndex;       
typedef uint32_t LDD_CAN_TAccMask;      
typedef uint32_t LDD_CAN_TMessageID;    
typedef uint8_t LDD_CAN_TErrorCounter;  
typedef uint32_t LDD_CAN_TErrorMask;    
typedef uint16_t LDD_CAN_TBufferMask;   





 
typedef enum {
  LDD_CAN_MB_RX_NOT_ACTIVE = 0x00U,
  LDD_CAN_MB_RX_FULL       = 0x02U,
  LDD_CAN_MB_RX_EMPTY      = 0x04U,
  LDD_CAN_MB_RX_OVERRUN    = 0x06U,
  LDD_CAN_MB_RX_BUSY       = 0x01U,
  LDD_CAN_MB_RX_RANSWER    = 0x0AU
} LDD_CAN_TRxBufferState;

 
typedef enum {
  LDD_CAN_DATA_FRAME,                   
  LDD_CAN_REMOTE_FRAME,                 
  LDD_CAN_RESPONSE_FRAME                
} LDD_CAN_TFrameType;

 
typedef struct {
  uint32_t TxFrames;                    
  uint32_t TxWarnings;                  
  uint32_t RxFrames;                    
  uint32_t RxWarnings;                  
  uint32_t BusOffs;                     
  uint32_t Wakeups;                     
  uint32_t Bit0Errors;                  
  uint32_t Bit1Errors;                  
  uint32_t AckErrors;                   
  uint32_t CrcErrors;                   
  uint32_t FormErrors;                  
  uint32_t BitStuffErrors;              
  uint32_t Errors;                      
} LDD_CAN_TStats;

 
typedef struct {
  LDD_CAN_TMessageID MessageID;         
  LDD_CAN_TFrameType FrameType;         
  uint8_t *Data;                        
  uint8_t  Length;                      
  uint16_t TimeStamp;                   
  uint8_t  LocPriority;                 
} LDD_CAN_TFrame;





 

 

 

 

 

 

 

 

 



 
 

 
 
 
 

 

 



 






 



 

 

 



 
typedef enum {
  LDD_USB_LOW_SPEED     = 0x00u,        
  LDD_USB_FULL_SPEED    = 0x01u,        
  LDD_USB_HIGH_SPEED    = 0x02u,        
  LDD_USB_SPEED_UNKNOWN = 0xFFu         
} LDD_USB_TBusSpeed;

 
typedef enum {
  LDD_USB_CONTROL      = 0x00u,         
  LDD_USB_ISOCHRONOUS  = 0x01u,         
  LDD_USB_BULK         = 0x02u,         
  LDD_USB_INTERRUPT    = 0x03u          
} LDD_USB_TTransferType;

 
typedef enum {
  LDD_USB_TRANSFER_NONE               = 0x00u,  
  LDD_USB_TRANSFER_DONE               = 0x01u,  
  LDD_USB_TRANSFER_ERROR_CANCELLED    = 0x02u,  
  LDD_USB_TRANSFER_ERROR_STALLED      = 0x03u,  
  LDD_USB_TRANSFER_ERROR_BUS_TIMEOUT  = 0x04u,  
  LDD_USB_TRANSFER_ERROR_DATA         = 0x05u,  
  LDD_USB_TRANSFER_ERROR_PID          = 0x06u,  
  LDD_USB_TRANSFER_ERROR_EOF          = 0x07u,  
  LDD_USB_TRANSFER_ERROR_CRC16        = 0x08u,  
  LDD_USB_TRANSFER_ERROR_DFN8         = 0x09u,  
  LDD_USB_TRANSFER_ERROR_DMA          = 0x0Au,  
  LDD_USB_TRANSFER_ERROR_BTS          = 0x0Bu,  
  LDD_USB_TRANSFER_ERROR              = 0x0Fu,  
  LDD_USB_TRANSFER_QUEUED             = 0x10u,  
  LDD_USB_TRANSFER_PENDING            = 0x30u  
} LDD_USB_TTransferState;

 
typedef struct LDD_USB_TSDP_Struct {
  uint8_t   bmRequestType;              
  uint8_t   bRequest;                   
  uint16_t  wValue;                     
  uint16_t  wIndex;                     
  uint16_t  wLength;                    
} LDD_USB_TSDP;

 
typedef struct LDD_USB_TEpDescriptor_Struct {
  uint8_t   bLength;                    
  uint8_t   bDescriptorType;            
  uint8_t   bEndpointAddress;           
  uint8_t   bmAttributes;               
  uint16_t  wMaxPacketSize;             
  uint8_t   bInterval;                  
} LDD_USB_TEpDescriptor;

 
typedef struct LDD_USB_TDevDescriptor_Struct {
  uint8_t   bLength;                    
  uint8_t   bDescriptorType;            
  uint16_t  bcdUSB;                     
  uint8_t   bDeviceClass;               
  uint8_t   bDeviceSubClass;            
  uint8_t   bDeviceProtocol;            
  uint8_t   bMaxPacketSize0;            
  uint16_t  idVendor;                   
  uint16_t  idProduct;                  
  uint16_t  bcdDevice;                  
  uint8_t   iManufacturer;              
  uint8_t   iProduct;                   
  uint8_t   iSerialNumber;              
  uint8_t   bNumConfigurations;         
} LDD_USB_TDevDescriptor;


 
struct LDD_USB_Device_TTD_Struct;

 
typedef void (LDD_USB_Device_TTransferDoneCalback)(LDD_TDeviceData *DevDataPtr, struct LDD_USB_Device_TTD_Struct *TrParamPtr);

 
typedef struct LDD_USB_Device_TTD_Head_Struct {
  uint8_t    EpNum;                     
  LDD_TData *BufferPtr;                 
  uint16_t   BufferSize;                
  uint8_t    Flags;                     
} LDD_USB_Device_TTD_Head;

 
typedef struct LDD_USB_Device_TTD_Struct {
   
  LDD_USB_Device_TTD_Head              Head;  
   
   
  LDD_USB_TTransferState               TransferState;  
  uint16_t                             TransmittedDataSize;  
  LDD_USB_Device_TTransferDoneCalback *CallbackFnPtr;  
  uint8_t                             *ParamPtr;  
} LDD_USB_Device_TTD;

 
typedef enum {
  LDD_USB_DEVICE_DISABLED                = (0x100u + 0x00u),  
  LDD_USB_DEVICE_DISABLED_BY_OTG         = (0x100u + 0x01u),  
  LDD_USB_DEVICE_VBUS_OFF                = (0x100u + 0x02u),  
  LDD_USB_DEVICE_VBUS_ON                 = (0x100u + 0x03u),  
  LDD_USB_DEVICE_ENABLED                 = (0x100u + 0x04u),  
  LDD_USB_DEVICE_SUSPENDED               = (0x100u + 0x05u),  
  LDD_USB_DEVICE_SUSPENDED_RESUME_READY  = (0x100u + 0x06u),  
  LDD_USB_DEVICE_RESUME_PENDING          = (0x100u + 0x07u)  
} LDD_USB_Device_TState;

 
typedef enum {
  LDD_USB_HOST_DISABLED                = (0x100u + 0x00u),  
  LDD_USB_HOST_DISABLED_BY_OTG         = (0x100u + 0x01u),  
  LDD_USB_HOST_PORT_POWERED_OFF        = (0x100u + 0x02u),  
  LDD_USB_HOST_PORT_DISCONNECTED       = (0x100u + 0x03u),  
  LDD_USB_HOST_PORT_DISABLED           = (0x100u + 0x04u),  
  LDD_USB_HOST_PORT_RESETING           = (0x100u + 0x05u),  
  LDD_USB_HOST_PORT_RESET_RECOVERING   = (0x100u + 0x06u),  
  LDD_USB_HOST_PORT_ENABLED            = (0x100u + 0x07u),  
  LDD_USB_HOST_PORT_SUSPENDED          = (0x100u + 0x08u),  
  LDD_USB_HOST_PORT_RESUME_READY       = (0x100u + 0x09u),  
  LDD_USB_HOST_PORT_RESUMING           = (0x100u + 0x0Au),  
  LDD_USB_HOST_PORT_RESUME_RECOVERING  = (0x100u + 0x0Bu)  
} LDD_USB_Host_TState;

 
typedef enum {
  LDD_USB_OTG_DISABLED                   = (0x100u + 0x00u),  
  LDD_USB_OTG_ENABLED                    = (0x100u + 0x01u),  
  LDD_USB_OTG_A_IDLE                     = (0x100u + 0x02u),  
  LDD_USB_OTG_A_WAIT_VRISE               = (0x100u + 0x03u),  
  LDD_USB_OTG_A_WAIT_VFALL               = (0x100u + 0x05u),  
  LDD_USB_OTG_A_WAIT_BCON                = (0x100u + 0x07u),  
  LDD_USB_OTG_A_VBUS_ERROR               = (0x100u + 0x09u),  
  LDD_USB_OTG_A_SUSPEND                  = (0x100u + 0x0Au),  
  LDD_USB_OTG_B_IDLE                     = (0x100u + 0x0Cu),  
  LDD_USB_OTG_B_SRP_INIT                 = (0x100u + 0x0Eu),  
  LDD_USB_OTG_B_WAIT_ACON                = (0x100u + 0x0Fu),  
  LDD_USB_OTG_A_HOST                     = (0x100u + 0x10u),  
  LDD_USB_OTG_A_PERIPHERAL               = (0x100u + 0x11u),  
  LDD_USB_OTG_B_HOST                     = (0x100u + 0x12u),  
  LDD_USB_OTG_B_PERIPHERAL               = (0x100u + 0x13u)  
} LDD_USB_Otg_TState;

 
typedef enum {
  LDD_USB_OTG_CMD_SET_A_BUS_REQUEST,    
  LDD_USB_OTG_CMD_CLR_A_BUS_REQUEST,    
  LDD_USB_OTG_CMD_SET_B_BUS_REQUEST,    
  LDD_USB_OTG_CMD_CLR_B_BUS_REQUEST,    
  LDD_USB_OTG_CMD_SET_A_BUS_DROP,       
  LDD_USB_OTG_CMD_CLR_A_BUS_DROP,       
  LDD_USB_OTG_CMD_SET_A_SUSPEND_REQUEST,  
  LDD_USB_OTG_CMD_CLR_A_SUSPEND_REQUEST,  
  LDD_USB_OTG_CMD_SET_A_SET_B_HNP_EN_REQUEST,  
  LDD_USB_OTG_CMD_CLR_A_SET_B_HNP_EN_REQUEST,  
  LDD_USB_OTG_CMD_SET_B_HNP_EN_REQUEST,  
  LDD_USB_OTG_CMD_CLR_B_HNP_EN_REQUEST  
} LDD_USB_Otg_TCmd;

 
typedef enum {
  LDD_USB_HOST_PORT_CMD_POWER_ON,       
  LDD_USB_HOST_PORT_CMD_POWER_OFF,      
  LDD_USB_HOST_PORT_CMD_RESET,          
  LDD_USB_HOST_PORT_CMD_RESUME,         
  LDD_USB_HOST_PORT_CMD_SUSPEND,        
  LDD_USB_HOST_PORT_CMD_DISABLE         
} LDD_USB_Host_TPortControlCmd;

 
typedef void LDD_USB_Host_TPipeHandle;  
typedef void LDD_USB_Host_TTransferHandle;  

 
typedef struct LDD_USB_Host_TPipeDescr_Struct {
  uint8_t                DevAddress;    
  LDD_USB_TBusSpeed      DevSpeed;      
  uint8_t                EpNumber;      
  uint8_t                EpDir;         
  LDD_USB_TTransferType  TransferType;  
  uint16_t               MaxPacketSize;  
  uint8_t                TrPerUFrame;   
  uint32_t               Interval;      
  uint32_t               NAKCount;      
  uint8_t                Flags;         
} LDD_USB_Host_TPipeDescr;

 
typedef void (LDD_USB_Host_TTransferDoneCalback)(
  LDD_TDeviceData        *DevDataPtr,   
  LDD_TData              *BufferPtr,    
  uint16_t                BufferSize,   
  uint8_t                *ParamPtr,     
  LDD_USB_TTransferState  Status        
);

 
typedef struct LDD_USB_Host_TTD_Struct {
  LDD_TData                         *BufferPtr;  
  uint16_t                           BufferSize;  
  uint8_t                            Flags;  
  LDD_USB_Host_TTransferDoneCalback *CallbackFnPtr;  
  uint8_t                           *ParamPtr;  
  LDD_USB_TSDP                      *SDPPrt;  
} LDD_USB_Host_TTD;

 

 

 

 

 

 

 


 

 

 
typedef struct LDD_USB_TGetDecriptorRequest_Struct {
  uint8_t            bmRequestType;     
  uint8_t            bRequest;          
  uint8_t            bDescriptorIndex;  
  uint8_t            bDescriptorType;   
  uint16_t           wLanguageID;       
  uint16_t           wLength;           
} LDD_USB_TGetDecriptorRequest;

 
typedef struct LDD_USB_TEndpointStatusRequest_Struct {
  uint8_t            bmRequestType;     
  uint8_t            bRequest;          
  uint16_t           wValue;            
  uint8_t            bEndpoint;         
  uint8_t            bIndexHigh;        
  uint16_t           wLength;           
} LDD_USB_TEndpointStatusRequest;

 
typedef struct LDD_USB_TEndpointFeatureRequest_Struct {
  uint8_t            bmRequestType;     
  uint8_t            bRequest;          
  uint16_t           wFeatureSelector;  
  uint8_t            bEndpoint;         
  uint8_t            bIndexHigh;        
  uint16_t           wLength;           
} LDD_USB_TEndpointFeatureRequest;

 
typedef struct LDD_USB_TInterfaceFeatureRequest_Struct {
  uint8_t            bmRequestType;     
  uint8_t            bRequest;          
  uint16_t           wFeatureSelector;  
  uint16_t           wInterface;        
  uint16_t           wLength;           
} LDD_USB_TInterfaceFeatureRequest;

 
typedef struct LDD_USB_TDeviceFeatureRequest_Struct {
  uint8_t            bmRequestType;     
  uint8_t            bRequest;          
  uint16_t           wFeatureSelector;  
  uint16_t           wIndex;            
  uint16_t           wLength;           
} LDD_USB_TDeviceFeatureRequest;

 
typedef struct LDD_USB_TGetInterfaceRequest_Struct {
  uint8_t            bmRequestType;     
  uint8_t            bRequest;          
  uint16_t           wWalue;            
  uint16_t           wInterface;        
  uint16_t           wLength;           
} LDD_USB_TGetInterfaceRequest;

 
typedef struct LDD_USB_TSetInterfaceRequest_Struct {
  uint8_t            bmRequestType;     
  uint8_t            bRequest;          
  uint16_t           wAltSet;           
  uint16_t           wInterface;        
  uint16_t           wLength;           
} LDD_USB_TSetInterfaceRequest;

 
typedef struct LDD_USB_TSetAddressRequest_Struct {
  uint8_t            bmRequestType;     
  uint8_t            bRequest;          
  uint8_t            DeviceAddress;     
  uint8_t            bValueHigh;        
  uint16_t           wIndex;            
  uint16_t           wLength;           
} LDD_USB_TSetAddressRequest;

 
typedef struct LDD_USB_TSetConfigRequest_Struct {
  uint8_t            bmRequestType;     
  uint8_t            bRequest;          
  uint8_t            bValueHigh;        
  uint8_t            ConfigNumber;      
  uint16_t           wIndex;            
  uint16_t           wLength;           
} LDD_USB_TSetConfigRequest;





 


 
typedef enum {
  LDD_DAC_BUFFER_NORMAL_MODE          = 0x00U,  
  LDD_DAC_BUFFER_SWING_MODE           = 0x01U,  
  LDD_DAC_BUFFER_SCAN_MODE            = 0x02U  
} LDD_DAC_TBufferMode;

 
typedef enum {
  LDD_DAC_BUFFER_WATERMARK_L1         = 0x00U,
  LDD_DAC_BUFFER_WATERMARK_L2         = 0x01U,
  LDD_DAC_BUFFER_WATERMARK_L3         = 0x02U,
  LDD_DAC_BUFFER_WATERMARK_L4         = 0x03U
} LDD_DAC_TBufferWatermark;


typedef void* LDD_DAC_TDataPtr;         
typedef uint32_t LDD_DAC_TData;         
typedef uint32_t LDD_DAC_TErrorMask;    
typedef uint32_t LDD_DAC_TArrayLength;  





 


 
typedef enum {
  LDD_FLASH_READ_1S_BLOCK             = 0x00u,  
  LDD_FLASH_READ_1S_SECTION           = 0x01u,  
  LDD_FLASH_WRITE_BYTE                = 0x04u,  
  LDD_FLASH_WRITE_WORD                = 0x05u,  
  LDD_FLASH_WRITE_LONG_WORD           = 0x06u,  
  LDD_FLASH_WRITE_PHRASE              = 0x07u,  
  LDD_FLASH_ERASE_FLASH_BLOCK         = 0x08u,  
  LDD_FLASH_ERASE_SECTOR              = 0x09u,  
  LDD_FLASH_ERASE_ALL_FLASH_BLOCKS    = 0x44u  
} LDD_FLASH_TCommand;

 
typedef enum {
  LDD_FLASH_NO_OPERATION,               
  LDD_FLASH_READ,                       
  LDD_FLASH_WRITE,                      
  LDD_FLASH_ERASE,                      
  LDD_FLASH_ERASE_BLOCK,                
  LDD_FLASH_VERIFY_ERASED_BLOCK         
} LDD_FLASH_TOperationType;

 
typedef enum {
  LDD_FLASH_FAILED                    = 0x00u,  
  LDD_FLASH_STOP                      = 0x01u,  
  LDD_FLASH_IDLE                      = 0x02u,  
  LDD_FLASH_STOP_REQ                  = 0x03u,  
  LDD_FLASH_START                     = 0x04u,  
  LDD_FLASH_RUNNING                   = 0x05u  
} LDD_FLASH_TOperationStatus;

typedef uint8_t LDD_FLASH_TErrorFlags;  

typedef uint32_t LDD_FLASH_TAddress;    

typedef uint32_t LDD_FLASH_TDataSize;   

typedef uint16_t LDD_FLASH_TErasableUnitSize;  

 
typedef struct {
  LDD_FLASH_TOperationType CurrentOperation;  
  LDD_FLASH_TCommand       CurrentCommand;  
  LDD_FLASH_TErrorFlags    CurrentErrorFlags;  
  LDD_FLASH_TAddress       CurrentAddress;  
  LDD_TData               *CurrentDataPtr;  
  LDD_FLASH_TDataSize      CurrentDataSize;  
} LDD_FLASH_TErrorStatus;





 


 

 

 

 

 
typedef enum {
  LDD_ANALOGCOMP_INPUT_0 = 0x00U,       
  LDD_ANALOGCOMP_INPUT_1 = 0x01U,       
  LDD_ANALOGCOMP_INPUT_2 = 0x02U,       
  LDD_ANALOGCOMP_INPUT_3 = 0x03U,       
  LDD_ANALOGCOMP_INPUT_4 = 0x04U,       
  LDD_ANALOGCOMP_INPUT_5 = 0x05U,       
  LDD_ANALOGCOMP_INPUT_6 = 0x06U,       
  LDD_ANALOGCOMP_INPUT_7 = 0x07U,       
  LDD_ANALOGCOMP_INPUT_DISABLED = 0x08U  
} LDD_AnalogComp_TComparatorInput;

 
typedef enum {
  LDD_ANALOGCOMP_NO_EDGE = 0x00U,       
  LDD_ANALOGCOMP_FALLING_EDGE = 0x02U,  
  LDD_ANALOGCOMP_RISING_EDGE = 0x04U,   
  LDD_ANALOGCOMP_BOTH_EDGES = 0x06U     
} LDD_AnalogComp_TCompareStatus;

 
typedef enum {
  LDD_ANALOGCOMP_RISING_EDGE_MODE = 0x10U,  
  LDD_ANALOGCOMP_FALLING_EDGE_MODE = 0x08U,  
  LDD_ANALOGCOMP_BOTH_EDGES_MODE = 0x18U  
} LDD_AnalogComp_TComparatorMode;

typedef uint8_t LDD_AnalogComp_TOutputValue;  





 




 
typedef enum {
  LDD_SDHC_SD,                          
  LDD_SDHC_SDIO,                        
  LDD_SDHC_SDCOMBO,                     
  LDD_SDHC_MMC,                         
  LDD_SDHC_CE_ATA                       
} LDD_SDHC_TCardType;

 
typedef struct {
  uint16_t MaxBlockLength;              
  bool     MisalignBlock;               
  bool     PartialBlock;                
} LDD_SDHC_TCardAccess;

 
typedef struct {
  uint16_t SectorSize;                  
  uint8_t  Pattern;                     
} LDD_SDHC_TCardErase;

 
typedef struct {
  uint16_t GroupSize;                   
  bool     Permanent;                   
} LDD_SDHC_TCardWriteProtect;

 
typedef struct {
  uint8_t              DataWidths;      
  uint8_t              Operations;      
  bool                 HighSpeed;       
  bool                 HighCapacity;    
  bool                 LowVoltage;      
  LDD_SDHC_TCardAccess Read;            
  LDD_SDHC_TCardAccess Write;           
  LDD_SDHC_TCardErase  Erase;           
  LDD_SDHC_TCardWriteProtect WriteProtect;  
} LDD_SDHC_TCardCaps;

 
typedef struct {
  LDD_SDHC_TCardType Type;              
  uint16_t           BlockLength;       
  uint32_t           BlockCount;        
  LDD_SDHC_TCardCaps Caps;              
} LDD_SDHC_TCardInfo;

 
typedef enum {
  LDD_SDHC_READ,                        
  LDD_SDHC_WRITE                        
} LDD_SDHC_TTransferOperation;

 
typedef struct {
  uint16_t Size;                        
  uint8_t  *DataPtr;                    
} LDD_SDHC_TBufferDesc;

 
typedef enum {
  LDD_SDHC_LOW_VOLTAGE,                 
  LDD_SDHC_HIGH_VOLTAGE                 
} LDD_SDHC_TVoltage;

 
typedef enum {
  LDD_SDHC_GROUP,                       
  LDD_SDHC_CARD                         
} LDD_SDHC_TWriteProtectType;

 
typedef enum {
  LDD_SDHC_DISABLED,                    
  LDD_SDHC_RESET,                       
  LDD_SDHC_IDLE,                        
  LDD_SDHC_VOLTAGE_VALIDATION,          
  LDD_SDHC_CARD_REGISTRATION,           
  LDD_SDHC_CARD_SELECTION,              
  LDD_SDHC_CARD_INFO_RETRIEVAL,         
  LDD_SDHC_TRANSFER,                    
  LDD_SDHC_ERASION,                     
  LDD_SDHC_IO_REG_TRANSFER,             
  LDD_SDHC_DATA_WIDTH_SELECTION,        
  LDD_SDHC_BUS_CLOCK_SELECTION,         
  LDD_SDHC_WRITE_PROTECTION_SETUP,      
  LDD_SDHC_WRITE_PROTECTION_RETRIEVAL   
} LDD_SDHC_TStatus;

 
typedef enum {
  LDD_SDHC_ERR_OK,                      
  LDD_SDHC_ERR_DMA,                     
  LDD_SDHC_ERR_NOT_SUPPORTED,           
  LDD_SDHC_ERR_TIMEOUT,                 
  LDD_SDHC_ERR_COMMAND_CRC,             
  LDD_SDHC_ERR_DATA_CRC,                
  LDD_SDHC_ERR_ADDRESS_OUT_OF_RANGE,    
  LDD_SDHC_ERR_ADDRESS_MISALIGN,        
  LDD_SDHC_ERR_BLOCK_LEN_ERROR,         
  LDD_SDHC_ERR_WP_VIOLATION,            
  LDD_SDHC_ERR_CARD_IS_LOCKED,          
  LDD_SDHC_ERR_WP_ERASE_SKIP,           
  LDD_SDHC_ERR_INTERNAL_FAILURE,        
  LDD_SDHC_ERR_CARD_FAILURE             
} LDD_SDHC_TError;





 



 


 

typedef void  LDD_DMA_TData;
typedef uint8_t  LDD_DMA_TTransactionSize;  
typedef uint32_t LDD_DMA_TTransactionCount;
typedef uint32_t LDD_DMA_TRequestCount;
typedef uint32_t LDD_DMA_TTransferDataSize;

typedef uint32_t LDD_DMA_TAddress;      
typedef int32_t  LDD_DMA_TAddressOffset;  
typedef uint32_t LDD_DMA_TByteCount;    
typedef uint8_t  LDD_DMA_TTransferSize;  
typedef uint8_t  LDD_DMA_TModuloSize;   
                                        
typedef uint8_t  LDD_DMA_TTriggerSource;  
typedef uint8_t  LDD_DMA_TChannelNumber;  
typedef uint8_t  LDD_DMA_TRecordNumber;  
typedef uint16_t LDD_DMA_TChannelMask;  
typedef uint8_t  LDD_DMA_TChannelPriority;  
typedef uint8_t  LDD_DMA_TOuterLoopCount;  
typedef uint8_t  LDD_DMA_TAfterRequest;  
typedef uint8_t  LDD_DMA_TAfterTransfer;  
typedef uint8_t  LDD_DMA_TBandwidthControl;  
typedef uint32_t LDD_DMA_TErrorFlags;   

 
typedef enum {
  LDD_DMA_IDLE,                         
  LDD_DMA_BUSY,                         
  LDD_DMA_DONE,                         
  LDD_DMA_ERROR                         
} LDD_DMA_TChannelStatus;

 
typedef enum {
  LDD_DMA_TRANSFER_IDLE,                
  LDD_DMA_TRANSFER_BUSY,                
  LDD_DMA_TRANSFER_ERROR                
} LDD_DMA_TTransferState;

 
typedef enum {
  LDD_DMA_CYCLE_STEAL_TRANSFERS,        
  LDD_DMA_SINGLE_TRANSFER,              
  LDD_DMA_NESTED_TRANSFERS              
} LDD_DMA_TTransferMode;

 
typedef enum {
  LDD_DMA_SW_TRIGGER,                   
  LDD_DMA_HW_TRIGGER,                   
  LDD_DMA_ALWAYS_ENABLED_TRIGGER        
} LDD_DMA_TTriggerType;

 
typedef enum {
  LDD_DMA_LINKING_DISABLED,             
  LDD_DMA_CYCLE_STEAL_AND_TRANSFER_COMPLETE_LINKING,  
  LDD_DMA_CYCLE_STEAL_LINKING,          
  LDD_DMA_TRANSFER_COMPLETE_LINKING     
} LDD_DMA_TChannelLinkingMode;

 
typedef struct {
  LDD_DMA_TChannelNumber ChannelNumber;  
  LDD_DMA_TErrorFlags ErrorFlags;       
} LDD_DMA_TError;

 
typedef struct {
  LDD_TUserData                  *UserDataPtr;  
  LDD_DMA_TAddress               SourceAddress;  
  bool                           SourceAddressIncrement;  
  LDD_DMA_TTransferSize          SourceTransferSize;  
  LDD_DMA_TModuloSize            SourceModuloSize;  
  LDD_DMA_TAddress               DestinationAddress;  
  bool                           DestinationAddressIncrement;  
  LDD_DMA_TTransferSize          DestinationTransferSize;  
  LDD_DMA_TModuloSize            DestinationModuloSize;  
  LDD_DMA_TTransferMode          TransferMode;  
  LDD_DMA_TByteCount             ByteCount;  
  bool                           AutoAlign;  
  LDD_DMA_TChannelLinkingMode    ChannelLinkingMode;  
  LDD_DMA_TChannelNumber         InnerLoopLinkedChannel;  
  LDD_DMA_TChannelNumber         OuterLoopLinkedChannel;  
  bool                           ChannelAutoSelection;  
  LDD_DMA_TChannelNumber         ChannelNumber;  
  LDD_DMA_TTriggerType           TriggerType;  
  LDD_DMA_TTriggerSource         TriggerSource;  
  bool                           PeriodicTrigger;  
  bool                           DisableAfterRequest;  
  bool                           AsynchronousRequests;  
  bool                           Interrupts;  
  bool                           OnComplete;  
  bool                           OnError;  
  void (*OnCompleteEventPtr)(LDD_TUserData* UserDataPtr);  
  void (*OnErrorEventPtr)(LDD_TUserData* UserDataPtr);  
  bool                           ChannelEnabled;  
} LDD_DMA_TTransferDescriptor;

typedef LDD_DMA_TTransferDescriptor *LDD_DMA_TTransferDescriptorPtr;  





 




typedef uint32_t LDD_SPIMASTER_TError;  

 
typedef struct {
  uint32_t RxChars;                     
  uint32_t TxChars;                     
  uint32_t RxParityErrors;              
  uint32_t RxOverruns;                  
} LDD_SPIMASTER_TStats;





 




typedef uint32_t LDD_SPISLAVE_TError;   

 
typedef struct {
  uint32_t RxChars;                     
  uint32_t TxChars;                     
  uint32_t RxParityErrors;              
  uint32_t RxOverruns;                  
  uint32_t TxUnderruns;                 
} LDD_SPISLAVE_TStats;





 







typedef uint8_t LDD_SSI_TSectionMask;   

typedef uint32_t LDD_SSI_TError;        

typedef uint32_t LDD_SSI_TComStatus;    

 
typedef struct {
  LDD_TData *Channel0Ptr;               
  LDD_TData *Channel1Ptr;               
} LDD_SSI_TDataBlocks;

 
typedef enum {
  LDD_SSI_READ_COMMAND  = 0x08u,
  LDD_SSI_WRITE_COMMAND = 0x10u
} LDD_SSI_TAC97CommandType;

 
typedef struct {
  LDD_SSI_TAC97CommandType Type;        
  uint32_t Address;                     
  uint32_t Data;                        
} LDD_SSI_TAC97Command;

 
typedef struct {
  uint32_t RxChars;                     
  uint32_t TxChars;                     
  uint32_t RxOverruns;                  
  uint32_t TxUnderruns;                 
  uint32_t RxChars1;                    
  uint32_t TxChars1;                    
  uint32_t RxOverruns1;                 
  uint32_t TxUnderruns1;                
} LDD_SSI_TStats;





 


 
typedef struct {
  uint32_t Second;                      
  uint32_t Minute;                      
  uint32_t Hour;                        
  uint32_t DayOfWeek;                   
  uint32_t Day;                         
  uint32_t Month;                       
  uint32_t Year;                        
} LDD_RTC_TTime;







 


 
typedef enum  {
  LDD_CRC_NO_TRANSPOSE = 0,             
  LDD_CRC_BITS = 1,                     
  LDD_CRC_BITS_AND_BYTES = 2,           
  LDD_CRC_BYTES = 3                     
} LDD_CRC_TTransposeType;

 
typedef enum  {
  LDD_CRC_16,                           
  LDD_CRC_CCITT,                        
  LDD_CRC_MODBUS_16,                    
  LDD_CRC_KERMIT,                       
  LDD_CRC_DNP,                          
  LDD_CRC_32,                           
  LDD_CRC_USER                          
} LDD_CRC_TCRCStandard;

 
typedef struct  {
  bool Width32bit;                      
  bool ResultXORed;                     
  uint16_t SeedLow;                     
  uint16_t SeedHigh;                    
  uint16_t PolyLow;                     
  uint16_t PolyHigh;                    
  LDD_CRC_TTransposeType InputTransposeMode;  
  LDD_CRC_TTransposeType OutputTransposeMode;  
} LDD_CRC_TUserCRCStandard;





 











 



 
typedef enum {
  LDD_RNG_SLEEP_ENABLED,                
  LDD_RNG_SLEEP_DISABLED                
} LDD_RNG_TSleepMode;





 


 
 






 

 

 

typedef uint32_t LDD_NFC_TTargetID;     

 
typedef enum {
  LDD_NFC_CMD_NONE            = 0x00U,  
  LDD_NFC_CMD_RESET           = 0x01U,  
  LDD_NFC_CMD_ERASE           = 0x02U,  
  LDD_NFC_CMD_READ_ID         = 0x03U,  
  LDD_NFC_CMD_READ_PAGES      = 0x04U,  
  LDD_NFC_CMD_WRITE_PAGES     = 0x05U,  
  LDD_NFC_CMD_ERASE_BLOCKS    = 0x06U,  
  LDD_NFC_CMD_READ_RAW_PAGE   = 0x07U,  
  LDD_NFC_CMD_WRITE_RAW_PAGE  = 0x08U   
} LDD_NFC_TeCmd;





 




 
typedef struct {
  LDD_TData *Address;                   
  uint16_t Width;                       
  uint16_t Height;                      
  uint16_t Format;                      
} LDD_LCDC_TBitmap;

 
typedef struct {
  uint16_t X;                           
  uint16_t Y;                           
  uint16_t Width;                       
  uint16_t Height;                      
} LDD_LCDC_TWindow;

 
typedef enum {
  LDD_LCDC_DISABLED = 0,                
  LDD_LCDC_ALWAYS_1,                    
  LDD_LCDC_ALWAYS_0,                    
  LDD_LCDC_COLOR,                       
  LDD_LCDC_INVERTED,                    
  LDD_LCDC_INVERTED_COLOR,              
  LDD_LCDC_AND,                         
  LDD_LCDC_OR,                          
  LDD_LCDC_XOR
} LDD_LCDC_CursorOperation;

 
typedef enum {
  LDD_LCDC_PLANE_COMMON,                
  LDD_LCDC_PLANE_0,                     
  LDD_LCDC_PLANE_1                      
} LDD_LCDC_TPlaneID;






 




 







 




















 






 



 





 







 





















 






 



 



 


 



 







 
 












































 








 




 

 

 

 
 





 


 
 




 




 

 
typedef enum {
  INT_Initial_Stack_Pointer    = 0,                 
  INT_Initial_Program_Counter  = 1,                 
  INT_NMI                      = 2,                 
  INT_Hard_Fault               = 3,                 
  INT_Reserved4                = 4,                 
  INT_Reserved5                = 5,                 
  INT_Reserved6                = 6,                 
  INT_Reserved7                = 7,                 
  INT_Reserved8                = 8,                 
  INT_Reserved9                = 9,                 
  INT_Reserved10               = 10,                
  INT_SVCall                   = 11,                
  INT_Reserved12               = 12,                
  INT_Reserved13               = 13,                
  INT_PendableSrvReq           = 14,                
  INT_SysTick                  = 15,                
  INT_DMA0                     = 16,                
  INT_DMA1                     = 17,                
  INT_DMA2                     = 18,                
  INT_DMA3                     = 19,                
  INT_Reserved20               = 20,                
  INT_FTFA                     = 21,                
  INT_LVD_LVW                  = 22,                
  INT_LLW                      = 23,                
  INT_I2C0                     = 24,                
  INT_I2C1                     = 25,                
  INT_SPI0                     = 26,                
  INT_SPI1                     = 27,                
  INT_UART0                    = 28,                
  INT_UART1                    = 29,                
  INT_UART2                    = 30,                
  INT_ADC0                     = 31,                
  INT_CMP0                     = 32,                
  INT_TPM0                     = 33,                
  INT_TPM1                     = 34,                
  INT_TPM2                     = 35,                
  INT_RTC                      = 36,                
  INT_RTC_Seconds              = 37,                
  INT_PIT                      = 38,                
  INT_I2S0                     = 39,                
  INT_USB0                     = 40,                
  INT_DAC0                     = 41,                
  INT_TSI0                     = 42,                
  INT_MCG                      = 43,                
  INT_LPTimer                  = 44,                
  INT_Reserved45               = 45,                
  INT_PORTA                    = 46,                
  INT_PORTC_PORTD              = 47                 
} IRQInterruptIndex;



   




 




 




 

  #pragma language=extended



 




 

 
typedef struct ADC_MemMap {
  uint32_t SC1[2];                                  
  uint32_t CFG1;                                    
  uint32_t CFG2;                                    
  uint32_t R[2];                                    
  uint32_t CV1;                                     
  uint32_t CV2;                                     
  uint32_t SC2;                                     
  uint32_t SC3;                                     
  uint32_t OFS;                                     
  uint32_t PG;                                      
  uint32_t MG;                                      
  uint32_t CLPD;                                    
  uint32_t CLPS;                                    
  uint32_t CLP4;                                    
  uint32_t CLP3;                                    
  uint32_t CLP2;                                    
  uint32_t CLP1;                                    
  uint32_t CLP0;                                    
  uint8_t RESERVED_0[4];
  uint32_t CLMD;                                    
  uint32_t CLMS;                                    
  uint32_t CLM4;                                    
  uint32_t CLM3;                                    
  uint32_t CLM2;                                    
  uint32_t CLM1;                                    
  uint32_t CLM0;                                    
} volatile *ADC_MemMapPtr;



 




 


 



   




 




 

 
 
 
 
 
 
 
 
 
 
 
 
 
 
 
 
 
 
 
 
 
 
 
 
 



   


 
 
 



 




 


 
 

 



   




   




 




 

 
typedef struct BP_MemMap {
  uint32_t CTRL;                                    
  uint8_t RESERVED_0[4];
  uint32_t COMP[2];                                 
  uint8_t RESERVED_1[4032];
  uint32_t PID4;                                    
  uint32_t PID5;                                    
  uint32_t PID6;                                    
  uint32_t PID7;                                    
  uint32_t PID0;                                    
  uint32_t PID1;                                    
  uint32_t PID2;                                    
  uint32_t PID3;                                    
  uint32_t CID0;                                    
  uint32_t CID1;                                    
  uint32_t CID2;                                    
  uint32_t CID3;                                    
} volatile *BP_MemMapPtr;



 




 


 



   




 




 




   


 
 
 



 




 


 
 

 



   




   




 




 

 
typedef struct CMP_MemMap {
  uint8_t CR0;                                      
  uint8_t CR1;                                      
  uint8_t FPR;                                      
  uint8_t SCR;                                      
  uint8_t DACCR;                                    
  uint8_t MUXCR;                                    
} volatile *CMP_MemMapPtr;



 




 


 



   




 




 

 
 
 
 
 
 



   


 
 
 



 




 


 
 



   




   




 




 

 
typedef struct CoreDebug_MemMap {
  union {                                           
    uint32_t base_DHCSR_Read;                         
    uint32_t base_DHCSR_Write;                        
  };
  uint32_t base_DCRSR;                              
  uint32_t base_DCRDR;                              
  uint32_t base_DEMCR;                              
} volatile *CoreDebug_MemMapPtr;



 




 


 



   




 




 




   


 
 
 



 




 


 
 



   




   




 




 

 
typedef struct DAC_MemMap {
  struct {                                          
    uint8_t DATL;                                     
    uint8_t DATH;                                     
  } DAT[2];
  uint8_t RESERVED_0[28];
  uint8_t SR;                                       
  uint8_t C0;                                       
  uint8_t C1;                                       
  uint8_t C2;                                       
} volatile *DAC_MemMapPtr;



 




 


 



   




 




 

 
 
 
 
 
 



   


 
 
 



 




 


 
 

 



   




   




 




 

 
typedef struct DMA_MemMap {
  uint8_t RESERVED_0[256];
  struct {                                          
    uint32_t SAR;                                     
    uint32_t DAR;                                     
    union {                                           
      uint32_t DSR_BCR;                                 
      struct {                                          
        uint8_t RESERVED_0[3];
        uint8_t DSR;                                      
      } DMA_DSR_ACCESS8BIT;
    };
    uint32_t DCR;                                     
  } DMA[4];
} volatile *DMA_MemMapPtr;



 




 


 



   




 




 

 
 
 
 



   


 
 
 



 




 


 
 

 



   




   




 




 

 
typedef struct DMAMUX_MemMap {
  uint8_t CHCFG[4];                                 
} volatile *DMAMUX_MemMapPtr;



 




 


 



   




 




 

 



   


 
 
 



 




 


 
 

 



   




   




 




 

 
typedef struct DWT_MemMap {
  uint32_t CTRL;                                    
  uint8_t RESERVED_0[24];
  uint32_t PCSR;                                    
  struct {                                          
    uint32_t COMP;                                    
    uint32_t MASK;                                    
    uint32_t FUNCTION;                                
    uint8_t RESERVED_0[4];
  } COMPARATOR[2];
} volatile *DWT_MemMapPtr;



 




 


 



   




 




 




   


 
 
 



 




 


 
 

 



   




   




 




 

 
typedef struct FGPIO_MemMap {
  uint32_t PDOR;                                    
  uint32_t PSOR;                                    
  uint32_t PCOR;                                    
  uint32_t PTOR;                                    
  uint32_t PDIR;                                    
  uint32_t PDDR;                                    
} volatile *FGPIO_MemMapPtr;



 




 


 



   




 




 

 
 
 
 
 
 



   


 
 
 
 
 
 
 



 




 


 
 
 
 
 
 



   




   




 




 

 
typedef struct FTFA_MemMap {
  uint8_t FSTAT;                                    
  uint8_t FCNFG;                                    
  uint8_t FSEC;                                     
  uint8_t FOPT;                                     
  uint8_t FCCOB3;                                   
  uint8_t FCCOB2;                                   
  uint8_t FCCOB1;                                   
  uint8_t FCCOB0;                                   
  uint8_t FCCOB7;                                   
  uint8_t FCCOB6;                                   
  uint8_t FCCOB5;                                   
  uint8_t FCCOB4;                                   
  uint8_t FCCOBB;                                   
  uint8_t FCCOBA;                                   
  uint8_t FCCOB9;                                   
  uint8_t FCCOB8;                                   
  uint8_t FPROT3;                                   
  uint8_t FPROT2;                                   
  uint8_t FPROT1;                                   
  uint8_t FPROT0;                                   
} volatile *FTFA_MemMapPtr;



 




 


 



   




 




 

 
 
 
 
 
 
 
 
 
 
 
 
 
 
 
 
 
 
 
 



   


 
 
 



 




 


 
 



   




   




 




 

 
typedef struct GPIO_MemMap {
  uint32_t PDOR;                                    
  uint32_t PSOR;                                    
  uint32_t PCOR;                                    
  uint32_t PTOR;                                    
  uint32_t PDIR;                                    
  uint32_t PDDR;                                    
} volatile *GPIO_MemMapPtr;



 




 


 



   




 




 

 
 
 
 
 
 



   


 
 
 
 
 
 
 



 




 


 
 
 
 
 
 



   




   




 




 

 
typedef struct I2C_MemMap {
  uint8_t A1;                                       
  uint8_t F;                                        
  uint8_t C1;                                       
  uint8_t S;                                        
  uint8_t D;                                        
  uint8_t C2;                                       
  uint8_t FLT;                                      
  uint8_t RA;                                       
  uint8_t SMB;                                      
  uint8_t A2;                                       
  uint8_t SLTH;                                     
  uint8_t SLTL;                                     
} volatile *I2C_MemMapPtr;



 




 


 



   




 




 

 
 
 
 
 
 
 
 
 
 
 
 



   


 
 
 
 



 




 


 
 
 



   




   




 




 

 
typedef struct I2S_MemMap {
  uint32_t TCSR;                                    
  uint8_t RESERVED_0[4];
  uint32_t TCR2;                                    
  uint32_t TCR3;                                    
  uint32_t TCR4;                                    
  uint32_t TCR5;                                    
  uint8_t RESERVED_1[8];
  uint32_t TDR[1];                                  
  uint8_t RESERVED_2[60];
  uint32_t TMR;                                     
  uint8_t RESERVED_3[28];
  uint32_t RCSR;                                    
  uint8_t RESERVED_4[4];
  uint32_t RCR2;                                    
  uint32_t RCR3;                                    
  uint32_t RCR4;                                    
  uint32_t RCR5;                                    
  uint8_t RESERVED_5[8];
  uint32_t RDR[1];                                  
  uint8_t RESERVED_6[60];
  uint32_t RMR;                                     
  uint8_t RESERVED_7[28];
  uint32_t MCR;                                     
  uint32_t MDR;                                     
} volatile *I2S_MemMapPtr;



 




 


 



   




 




 

 
 
 
 
 
 
 
 
 
 
 
 
 
 
 
 



   


 
 
 



 




 


 
 

 



   




   




 




 

 
typedef struct LLWU_MemMap {
  uint8_t PE1;                                      
  uint8_t PE2;                                      
  uint8_t PE3;                                      
  uint8_t PE4;                                      
  uint8_t ME;                                       
  uint8_t F1;                                       
  uint8_t F2;                                       
  uint8_t F3;                                       
  uint8_t FILT1;                                    
  uint8_t FILT2;                                    
} volatile *LLWU_MemMapPtr;



 




 


 



   




 




 

 
 
 
 
 
 
 
 
 
 



   


 
 
 



 




 


 
 



   




   




 




 

 
typedef struct LPTMR_MemMap {
  uint32_t CSR;                                     
  uint32_t PSR;                                     
  uint32_t CMR;                                     
  uint32_t CNR;                                     
} volatile *LPTMR_MemMapPtr;



 




 


 



   




 




 

 
 
 
 



   


 
 
 



 




 


 
 



   




   




 




 

 
typedef struct MCG_MemMap {
  uint8_t C1;                                       
  uint8_t C2;                                       
  uint8_t C3;                                       
  uint8_t C4;                                       
  uint8_t C5;                                       
  uint8_t C6;                                       
  uint8_t S;                                        
  uint8_t RESERVED_0[1];
  uint8_t SC;                                       
  uint8_t RESERVED_1[1];
  uint8_t ATCVH;                                    
  uint8_t ATCVL;                                    
  uint8_t C7;                                       
  uint8_t C8;                                       
  uint8_t C9;                                       
  uint8_t C10;                                      
} volatile *MCG_MemMapPtr;



 




 


 



   




 




 

 
 
 
 
 
 
 
 
 
 
 



   


 
 
 



 




 


 
 



   




   




 




 

 
typedef struct MCM_MemMap {
  uint8_t RESERVED_0[8];
  uint16_t PLASC;                                   
  uint16_t PLAMC;                                   
  uint32_t PLACR;                                   
  uint8_t RESERVED_1[48];
  uint32_t CPO;                                     
} volatile *MCM_MemMapPtr;



 




 


 



   




 




 

 
 
 
 



   


 
 
 



 




 


 
 



   




   




 




 

 
typedef struct MTB_MemMap {
  uint32_t POSITION;                                
  uint32_t MASTER;                                  
  uint32_t FLOW;                                    
  uint32_t BASE;                                    
  uint8_t RESERVED_0[3824];
  uint32_t MODECTRL;                                
  uint8_t RESERVED_1[156];
  uint32_t TAGSET;                                  
  uint32_t TAGCLEAR;                                
  uint8_t RESERVED_2[8];
  uint32_t LOCKACCESS;                              
  uint32_t LOCKSTAT;                                
  uint32_t AUTHSTAT;                                
  uint32_t DEVICEARCH;                              
  uint8_t RESERVED_3[8];
  uint32_t DEVICECFG;                               
  uint32_t DEVICETYPID;                             
  uint32_t PERIPHID[8];                             
  uint32_t COMPID[4];                               
} volatile *MTB_MemMapPtr;



 




 


 



   




 




 

 
 
 
 
 
 
 
 
 
 
 
 
 
 
 



   


 
 
 



 




 


 
 

 



   




   




 




 

 
typedef struct MTBDWT_MemMap {
  uint32_t CTRL;                                    
  uint8_t RESERVED_0[28];
  struct {                                          
    uint32_t COMP;                                    
    uint32_t MASK;                                    
    uint32_t FCT;                                     
    uint8_t RESERVED_0[4];
  } COMPARATOR[2];
  uint8_t RESERVED_1[448];
  uint32_t TBCTRL;                                  
  uint8_t RESERVED_2[3524];
  uint32_t DEVICECFG;                               
  uint32_t DEVICETYPID;                             
  uint32_t PERIPHID[8];                             
  uint32_t COMPID[4];                               
} volatile *MTBDWT_MemMapPtr;



 




 


 



   




 




 

 
 
 
 
 
 
 
 
 



   


 
 
 



 




 


 
 

 



   




   




 




 

 
typedef struct NV_MemMap {
  uint8_t BACKKEY3;                                 
  uint8_t BACKKEY2;                                 
  uint8_t BACKKEY1;                                 
  uint8_t BACKKEY0;                                 
  uint8_t BACKKEY7;                                 
  uint8_t BACKKEY6;                                 
  uint8_t BACKKEY5;                                 
  uint8_t BACKKEY4;                                 
  uint8_t FPROT3;                                   
  uint8_t FPROT2;                                   
  uint8_t FPROT1;                                   
  uint8_t FPROT0;                                   
  uint8_t FSEC;                                     
  uint8_t FOPT;                                     
} volatile *NV_MemMapPtr;



 




 


 



   




 




 

 
 
 
 
 
 
 
 
 
 
 
 
 
 



   


 
 
 



 




 


 
 



   




   




 




 

 
typedef struct NVIC_MemMap {
  uint32_t ISER;                                    
  uint8_t RESERVED_0[124];
  uint32_t ICER;                                    
  uint8_t RESERVED_1[124];
  uint32_t ISPR;                                    
  uint8_t RESERVED_2[124];
  uint32_t ICPR;                                    
  uint8_t RESERVED_3[380];
  uint32_t IP[8];                                   
} volatile *NVIC_MemMapPtr;



 




 


 



   




 




 

 
 
 
 
 



   


 
 
 



 




 


 
 

 



   




   




 




 

 
typedef struct OSC_MemMap {
  uint8_t CR;                                       
} volatile *OSC_MemMapPtr;



 




 


 



   




 




 

 



   


 
 
 



 




 


 
 



   




   




 




 

 
typedef struct PIT_MemMap {
  uint32_t MCR;                                     
  uint8_t RESERVED_0[220];
  uint32_t LTMR64H;                                 
  uint32_t LTMR64L;                                 
  uint8_t RESERVED_1[24];
  struct {                                          
    uint32_t LDVAL;                                   
    uint32_t CVAL;                                    
    uint32_t TCTRL;                                   
    uint32_t TFLG;                                    
  } CHANNEL[2];
} volatile *PIT_MemMapPtr;



 




 


 



   




 




 

 
 
 
 
 
 
 



   


 
 
 



 




 


 
 

 



   




   




 




 

 
typedef struct PMC_MemMap {
  uint8_t LVDSC1;                                   
  uint8_t LVDSC2;                                   
  uint8_t REGSC;                                    
} volatile *PMC_MemMapPtr;



 




 


 



   




 




 

 
 
 



   


 
 
 



 




 


 
 



   




   




 




 

 
typedef struct PORT_MemMap {
  uint32_t PCR[32];                                 
  uint32_t GPCLR;                                   
  uint32_t GPCHR;                                   
  uint8_t RESERVED_0[24];
  uint32_t ISFR;                                    
} volatile *PORT_MemMapPtr;



 




 


 



   




 




 

 
 
 
 



   


 
 
 
 
 
 
 



 




 


 
 
 
 
 
 

 



   




   




 




 

 
typedef struct RCM_MemMap {
  uint8_t SRS0;                                     
  uint8_t SRS1;                                     
  uint8_t RESERVED_0[2];
  uint8_t RPFC;                                     
  uint8_t RPFW;                                     
} volatile *RCM_MemMapPtr;



 




 


 



   




 




 

 
 
 
 



   


 
 
 



 




 


 
 



   




   




 




 

 
typedef struct ROM_MemMap {
  uint32_t ENTRY[3];                                
  uint32_t TABLEMARK;                               
  uint8_t RESERVED_0[4028];
  uint32_t SYSACCESS;                               
  uint32_t PERIPHID4;                               
  uint32_t PERIPHID5;                               
  uint32_t PERIPHID6;                               
  uint32_t PERIPHID7;                               
  uint32_t PERIPHID0;                               
  uint32_t PERIPHID1;                               
  uint32_t PERIPHID2;                               
  uint32_t PERIPHID3;                               
  uint32_t COMPID[4];                               
} volatile *ROM_MemMapPtr;



 




 


 



   




 




 

 
 
 
 
 
 
 
 
 
 
 
 



   


 
 
 



 




 


 
 

 



   




   




 




 

 
typedef struct RTC_MemMap {
  uint32_t TSR;                                     
  uint32_t TPR;                                     
  uint32_t TAR;                                     
  uint32_t TCR;                                     
  uint32_t CR;                                      
  uint32_t SR;                                      
  uint32_t LR;                                      
  uint32_t IER;                                     
} volatile *RTC_MemMapPtr;



 




 


 



   




 




 

 
 
 
 
 
 
 
 



   


 
 
 



 




 


 
 



   




   




 




 

 
typedef struct SCB_MemMap {
  uint8_t RESERVED_0[8];
  uint32_t ACTLR;                                   
  uint8_t RESERVED_1[3316];
  uint32_t CPUID;                                   
  uint32_t ICSR;                                    
  uint32_t VTOR;                                    
  uint32_t AIRCR;                                   
  uint32_t SCR;                                     
  uint32_t CCR;                                     
  uint8_t RESERVED_2[4];
  uint32_t SHPR2;                                   
  uint32_t SHPR3;                                   
  uint32_t SHCSR;                                   
  uint8_t RESERVED_3[8];
  uint32_t DFSR;                                    
} volatile *SCB_MemMapPtr;



 




 


 



   




 




 

 
 
 
 
 
 
 
 
 
 



   


 
 
 



 




 


 
 



   




   




 




 

 
typedef struct SIM_MemMap {
  uint32_t SOPT1;                                   
  uint32_t SOPT1CFG;                                
  uint8_t RESERVED_0[4092];
  uint32_t SOPT2;                                   
  uint8_t RESERVED_1[4];
  uint32_t SOPT4;                                   
  uint32_t SOPT5;                                   
  uint8_t RESERVED_2[4];
  uint32_t SOPT7;                                   
  uint8_t RESERVED_3[8];
  uint32_t SDID;                                    
  uint8_t RESERVED_4[12];
  uint32_t SCGC4;                                   
  uint32_t SCGC5;                                   
  uint32_t SCGC6;                                   
  uint32_t SCGC7;                                   
  uint32_t CLKDIV1;                                 
  uint8_t RESERVED_5[4];
  uint32_t FCFG1;                                   
  uint32_t FCFG2;                                   
  uint8_t RESERVED_6[4];
  uint32_t UIDMH;                                   
  uint32_t UIDML;                                   
  uint32_t UIDL;                                    
  uint8_t RESERVED_7[156];
  uint32_t COPC;                                    
  uint32_t SRVCOP;                                  
} volatile *SIM_MemMapPtr;



 




 


 



   




 




 

 
 
 
 
 
 
 
 
 
 
 
 
 
 
 
 
 
 
 



   


 
 
 



 




 


 
 



   




   




 




 

 
typedef struct SMC_MemMap {
  uint8_t PMPROT;                                   
  uint8_t PMCTRL;                                   
  uint8_t STOPCTRL;                                 
  uint8_t PMSTAT;                                   
} volatile *SMC_MemMapPtr;



 




 


 



   




 




 

 
 
 
 



   


 
 
 



 




 


 
 



   




   




 




 

 
typedef struct SPI_MemMap {
  uint8_t S;                                        
  uint8_t BR;                                       
  uint8_t C2;                                       
  uint8_t C1;                                       
  uint8_t ML;                                       
  uint8_t MH;                                       
  uint8_t DL;                                       
  uint8_t DH;                                       
  uint8_t RESERVED_0[2];
  uint8_t CI;                                       
  uint8_t C3;                                       
} volatile *SPI_MemMapPtr;



 




 


 



   




 




 

 
 
 
 
 
 
 
 
 
 



   


 
 
 
 



 




 


 
 
 



   




   




 




 

 
typedef struct SysTick_MemMap {
  uint32_t CSR;                                     
  uint32_t RVR;                                     
  uint32_t CVR;                                     
  uint32_t CALIB;                                   
} volatile *SysTick_MemMapPtr;



 




 


 



   




 




 

 
 
 
 



   


 
 
 



 




 


 
 



   




   




 




 

 
typedef struct TPM_MemMap {
  uint32_t SC;                                      
  uint32_t CNT;                                     
  uint32_t MOD;                                     
  struct {                                          
    uint32_t CnSC;                                    
    uint32_t CnV;                                     
  } CONTROLS[6];
  uint8_t RESERVED_0[20];
  uint32_t STATUS;                                  
  uint8_t RESERVED_1[48];
  uint32_t CONF;                                    
} volatile *TPM_MemMapPtr;



 




 


 



   




 




 

 
 
 
 
 
 
 



   


 
 
 
 
 



 




 


 
 
 
 

 



   




   




 




 

 
typedef struct TSI_MemMap {
  uint32_t GENCS;                                   
  uint32_t DATA;                                    
  uint32_t TSHD;                                    
} volatile *TSI_MemMapPtr;



 




 


 



   




 




 

 
 
 



   


 
 
 



 




 


 
 



   




   




 




 

 
typedef struct UART_MemMap {
  uint8_t BDH;                                      
  uint8_t BDL;                                      
  uint8_t C1;                                       
  uint8_t C2;                                       
  uint8_t S1;                                       
  uint8_t S2;                                       
  uint8_t C3;                                       
  uint8_t D;                                        
  uint8_t C4;                                       
} volatile *UART_MemMapPtr;



 




 


 



   




 




 

 
 
 
 
 
 
 
 
 



   


 
 
 
 



 




 


 
 
 



   




   




 




 

 
typedef struct UART0_MemMap {
  uint8_t BDH;                                      
  uint8_t BDL;                                      
  uint8_t C1;                                       
  uint8_t C2;                                       
  uint8_t S1;                                       
  uint8_t S2;                                       
  uint8_t C3;                                       
  uint8_t D;                                        
  uint8_t MA1;                                      
  uint8_t MA2;                                      
  uint8_t C4;                                       
  uint8_t C5;                                       
} volatile *UART0_MemMapPtr;



 




 


 



   




 




 

 
 
 
 
 
 
 
 
 
 
 
 



   


 
 
 



 




 


 
 



   




   




 




 

 
typedef struct USB_MemMap {
  uint8_t PERID;                                    
  uint8_t RESERVED_0[3];
  uint8_t IDCOMP;                                   
  uint8_t RESERVED_1[3];
  uint8_t REV;                                      
  uint8_t RESERVED_2[3];
  uint8_t ADDINFO;                                  
  uint8_t RESERVED_3[3];
  uint8_t OTGISTAT;                                 
  uint8_t RESERVED_4[3];
  uint8_t OTGICR;                                   
  uint8_t RESERVED_5[3];
  uint8_t OTGSTAT;                                  
  uint8_t RESERVED_6[3];
  uint8_t OTGCTL;                                   
  uint8_t RESERVED_7[99];
  uint8_t ISTAT;                                    
  uint8_t RESERVED_8[3];
  uint8_t INTEN;                                    
  uint8_t RESERVED_9[3];
  uint8_t ERRSTAT;                                  
  uint8_t RESERVED_10[3];
  uint8_t ERREN;                                    
  uint8_t RESERVED_11[3];
  uint8_t STAT;                                     
  uint8_t RESERVED_12[3];
  uint8_t CTL;                                      
  uint8_t RESERVED_13[3];
  uint8_t ADDR;                                     
  uint8_t RESERVED_14[3];
  uint8_t BDTPAGE1;                                 
  uint8_t RESERVED_15[3];
  uint8_t FRMNUML;                                  
  uint8_t RESERVED_16[3];
  uint8_t FRMNUMH;                                  
  uint8_t RESERVED_17[3];
  uint8_t TOKEN;                                    
  uint8_t RESERVED_18[3];
  uint8_t SOFTHLD;                                  
  uint8_t RESERVED_19[3];
  uint8_t BDTPAGE2;                                 
  uint8_t RESERVED_20[3];
  uint8_t BDTPAGE3;                                 
  uint8_t RESERVED_21[11];
  struct {                                          
    uint8_t ENDPT;                                    
    uint8_t RESERVED_0[3];
  } ENDPOINT[16];
  uint8_t USBCTRL;                                  
  uint8_t RESERVED_22[3];
  uint8_t OBSERVE;                                  
  uint8_t RESERVED_23[3];
  uint8_t CONTROL;                                  
  uint8_t RESERVED_24[3];
  uint8_t USBTRC0;                                  
  uint8_t RESERVED_25[7];
  uint8_t USBFRMADJUST;                             
} volatile *USB_MemMapPtr;



 




 


 



   




 




 

 
 
 
 
 
 
 
 
 
 
 
 
 
 
 
 
 
 
 
 
 
 
 
 
 
 
 
 



   


 
 
 



 




 


 
 

 



   




   




 

  #pragma language=default



   




 




 




   



 

 
 












































 








 




 

 
   

 






 




 


 
 


 
 
 

 
 
 
 
 
 
 
 
 
 
 
 

 
 

typedef uint16_t PDD_TBool;



 




 








 




 












 



 














 



 












 



 














 



 














 



 














 



 














 



 














 



 














 



 












 

 



























 





 



 


 
 
 












































 








 




 

 
   

 



 

 

 








 

 


typedef struct  {
  uint32_t cpu_core_clk_hz;             
  uint32_t cpu_bus_clk_hz;              
  uint32_t cpu_flexbus_clk_hz;          
  uint32_t cpu_flash_clk_hz;            
  uint32_t cpu_usb_clk_hz;              
  uint32_t cpu_pll_fll_clk_hz;          
  uint32_t cpu_mcgir_clk_hz;            
  uint32_t cpu_oscer_clk_hz;            
  uint32_t cpu_erclk32k_clk_hz;         
  uint32_t cpu_mcgff_clk_hz;            
} TCpuClockConfiguration;

 
extern const TCpuClockConfiguration PE_CpuClockConfigurations[0x02U];

   
  typedef void (*const tIsrFunc)(void);
  typedef struct {
    void * __ptr;
    tIsrFunc __fun[0x2F];
  } tVectorTable;

  extern const tVectorTable __vector_table;
  extern const tVectorTable __vect_table;

 
 
extern volatile uint8_t SR_reg;         
 
extern volatile uint8_t SR_lock;





 










 
 
LDD_TError Cpu_SetClockConfiguration(LDD_TClockConfiguration ModeID);




 







 
 
LDD_TClockConfiguration Cpu_GetClockConfiguration(void);











 
void PE_low_level_init(void);

void Cpu_Interrupt(void);








 

 
int __low_level_init(void);
 








 

 


 



 







 




 

 

 






 
















 
 
LDD_TDeviceData* LED1_Init(LDD_TUserData *UserDataPtr);




 







 
 
void LED1_Deinit(LDD_TDeviceData *DeviceDataPtr);




 








 
 
void LED1_ClrVal(LDD_TDeviceData *DeviceDataPtr);




 








 
 
void LED1_SetVal(LDD_TDeviceData *DeviceDataPtr);




 








 
 
void LED1_NegVal(LDD_TDeviceData *DeviceDataPtr);

 


 


 







 






































 










 



 


 

 
 












































 








 




 

 
   

 

 
 












































 








 




 

 
   

 






 

 

 






 
















 
 
LDD_TDeviceData* LED2_Init(LDD_TUserData *UserDataPtr);




 







 
 
void LED2_Deinit(LDD_TDeviceData *DeviceDataPtr);




 








 
 
void LED2_ClrVal(LDD_TDeviceData *DeviceDataPtr);




 








 
 
void LED2_SetVal(LDD_TDeviceData *DeviceDataPtr);




 








 
 
void LED2_NegVal(LDD_TDeviceData *DeviceDataPtr);

 


 


 







 





 





 





 






 





 







 
static void LED_FlashTimeout( uint8_t timerId );







 
static void LED_ExitSerialFlash( void );






 





 





 




 
static bool_t mfLedInSerialMode;       




 
static uint8_t mLedFlashingLEDs = 0;   
static uint8_t mLedStartFlashingPosition = 0x01;




 
static tmrTimerID_t mLEDTimerID = 0xFF;




 






 






 
void LED_Init( void )
{
     
    LED1_Init((( void * )( 0x0UL )));
     
    LED2_Init((( void * )( 0x0UL )));

     
    LED1_SetVal((( void * )( 0x0UL )));
    LED2_SetVal((( void * )( 0x0UL )));

     
    mLEDTimerID = TMR_AllocateTimer();
}






 
void LED_UnInit( void )
{
     
    LED1_SetVal((( void * )( 0x0UL )));
    LED2_SetVal((( void * )( 0x0UL )));

     
    LED1_Deinit((( void * )( 0x0UL )));
     
    LED2_Deinit((( void * )( 0x0UL )));

     
    TMR_FreeTimer(mLEDTimerID);
}






 
void LED_Operate( LED_t led, LED_OpMode_t operation )
{
    if(led & 0x01)
    {
        switch(operation)
        {
        case gLedOn_c:
            LED1_ClrVal((( void * )( 0x0UL )));
            break;
        case gLedOff_c:
            LED1_SetVal((( void * )( 0x0UL )));
            break;
        case gLedToggle_c:
            LED1_NegVal((( void * )( 0x0UL )));
            break;
        }
    }
    if(led & 0x02)
    {
        switch(operation)
        {
        case gLedOn_c:
            LED2_ClrVal((( void * )( 0x0UL )));
            break;
        case gLedOff_c:
            LED2_SetVal((( void * )( 0x0UL )));
            break;
        case gLedToggle_c:
            LED2_NegVal((( void * )( 0x0UL )));
            break;
        }
    }
}






 
void LED_TurnOnLed( LED_t LEDNr )
{
    if (LEDNr & 0x01)
        LED_Operate(0x01, gLedOn_c);  
    if (LEDNr & 0x02)
        LED_Operate(0x02, gLedOn_c);  
}






 
void LED_TurnOffLed( LED_t LEDNr )
{
    if (LEDNr & 0x01)
        LED_Operate(0x01, gLedOff_c);  
    if (LEDNr & 0x02)
        LED_Operate(0x02, gLedOff_c);  
}






 
void LED_ToggleLed( LED_t LEDNr )
{
    if (LEDNr & 0x01)
        LED_Operate(0x01, gLedToggle_c);  
    if (LEDNr & 0x02)
        LED_Operate(0x02, gLedToggle_c);  
}






 
void LED_TurnOffAllLeds( void )
{
    LED_TurnOffLed(0x03);
}






 
void LED_TurnOnAllLeds( void )
{
    LED_TurnOnLed(0x03);
}






 
void LED_StopFlashingAllLeds( void )
{
    LED_SetLed(0x03, gLedOff_c);
}





 





 
void LED_StartFlash( LED_t LEDNr )
{
     
    mLedFlashingLEDs |= LEDNr;

     
    TMR_StartIntervalTimer(mLEDTimerID, 100, (pfTmrCallBack_t)LED_FlashTimeout, (void*)mLEDTimerID);
}







 
void LED_StopFlash( LED_t LEDNr )
{
     
    LED_TurnOffLed(LEDNr);

     
    mLedFlashingLEDs &= (~LEDNr);

     
    if(!mLedFlashingLEDs)
        TMR_StopTimer(mLEDTimerID);
}






 
void LED_StartSerialFlash( uint8_t LEDStartPosition )
{
     
    LED_StartFlash(0);

    if(LEDStartPosition >= 0x02)
        LEDStartPosition = 0x01;

    mLedStartFlashingPosition   = LEDStartPosition;

     
    do
    {
        LED_TurnOffLed(LEDStartPosition);
        LEDStartPosition = LEDStartPosition<<1;
    }while(LEDStartPosition <= (0x02 << 1));

    LED_TurnOnLed(mLedStartFlashingPosition);

    mLedFlashingLEDs = mLedStartFlashingPosition | mLedStartFlashingPosition << 1;  

     
    mfLedInSerialMode = 1;
}






 
void LED_SetHex( uint8_t hexValue )
{
    LED_SetLed(0x03, gLedOff_c);
    LED_SetLed(hexValue, gLedOn_c);
}








 
void LED_SetLed( LED_t LEDNr, LedState_t state )
{
     
    if(state == gLedStopFlashing_c)
        state = gLedOff_c;

     
    LED_ExitSerialFlash();

     
    if(state == gLedFlashing_c)
        LED_StartFlash(LEDNr);


     
    else {

         
        if(mfLedInSerialMode || (mLedFlashingLEDs & LEDNr))
            LED_StopFlash(LEDNr);

         
        if(state == gLedOn_c)
            LED_TurnOnLed(LEDNr);
        if(state == gLedOff_c)
            LED_TurnOffLed(LEDNr);
        if(state == gLedToggle_c)
            LED_ToggleLed(LEDNr);
    }
}





 







 
static void LED_ExitSerialFlash( void )
{
    if(mfLedInSerialMode) {
        mLedFlashingLEDs = 0;    
        do
        {
            LED_TurnOffLed(mLedStartFlashingPosition);
            mLedStartFlashingPosition = mLedStartFlashingPosition<<1;
        }while(mLedStartFlashingPosition <= (0x02 << 1));
        mLedStartFlashingPosition = 0x01;
        
        TMR_StopTimer(mLEDTimerID);
        mfLedInSerialMode = 0;
    }
}








 
static void LED_FlashTimeout( uint8_t timerId   )
{
    (void)timerId;   

    if(mLedFlashingLEDs & 0x01)
        LED_Operate(0x01, gLedToggle_c);
    if(mLedFlashingLEDs & 0x02)
        LED_Operate(0x02, gLedToggle_c);


     
    if(mfLedInSerialMode)
    {
        mLedFlashingLEDs = mLedFlashingLEDs << 1;
        if(mLedFlashingLEDs & (0x02 << 1))   
        {
            mLedFlashingLEDs &= 0x03;
            mLedFlashingLEDs |= mLedStartFlashingPosition;
        }
    }
}
