###############################################################################
#
# IAR ANSI C/C++ Compiler V7.70.1.11437/W32 for ARM       11/May/2018  20:20:16
# Copyright 1999-2016 IAR Systems AB.
#
#    Cpu mode     =  thumb
#    Endian       =  little
#    Source file  =  
#        C:\proj\Esel\KL16_SMAC_MQXLite_CCS811_and_BME280\app\Sources\mqx_tasks.c
#    Command line =  
#        C:\proj\Esel\KL16_SMAC_MQXLite_CCS811_and_BME280\app\Sources\mqx_tasks.c
#        --preprocess
#        "C:\proj\Esel\KL16_SMAC_MQXLite_CCS811_and_BME280\app\kl16z128_eslora
#        MQXLite\List" -lcN
#        "C:\proj\Esel\KL16_SMAC_MQXLite_CCS811_and_BME280\app\kl16z128_eslora
#        MQXLite\List" -o
#        "C:\proj\Esel\KL16_SMAC_MQXLite_CCS811_and_BME280\app\kl16z128_eslora
#        MQXLite\Obj" --no_cse --no_unroll --no_inline --no_code_motion
#        --no_tbaa --no_clustering --no_scheduling --debug --endian=little
#        --cpu=Cortex-M0+ -e --fpu=None --dlib_config "C:\Program Files
#        (x86)\IAR Systems\Embedded Workbench
#        7.5\arm\INC\c\DLib_Config_Normal.h" -I
#        C:\proj\Esel\KL16_SMAC_MQXLite_CCS811_and_BME280\app\Interface\ -I
#        C:\proj\Esel\KL16_SMAC_MQXLite_CCS811_and_BME280\app\Sources\ -I
#        C:\proj\Esel\KL16_SMAC_MQXLite_CCS811_and_BME280\app\..\MQXLITE\include\
#        -I
#        C:\proj\Esel\KL16_SMAC_MQXLite_CCS811_and_BME280\app\..\MQXLITE\config\
#        -I
#        C:\proj\Esel\KL16_SMAC_MQXLite_CCS811_and_BME280\app\..\MQXLITE\psp\cortex_m\
#        -I
#        C:\proj\Esel\KL16_SMAC_MQXLite_CCS811_and_BME280\app\..\MQXLITE\psp\cortex_m\compiler\iar\
#        -I
#        C:\proj\Esel\KL16_SMAC_MQXLite_CCS811_and_BME280\app\..\drv\Generated_Code\
#        -I
#        C:\proj\Esel\KL16_SMAC_MQXLite_CCS811_and_BME280\app\..\drv\PExSupport\Kinetis\
#        -I
#        C:\proj\Esel\KL16_SMAC_MQXLite_CCS811_and_BME280\app\..\framework\OSAbstraction\MQXLite\Interface\
#        -I
#        C:\proj\Esel\KL16_SMAC_MQXLite_CCS811_and_BME280\app\..\framework\RNG\Interface\
#        -I
#        C:\proj\Esel\KL16_SMAC_MQXLite_CCS811_and_BME280\app\..\framework\Common\
#        -I
#        C:\proj\Esel\KL16_SMAC_MQXLite_CCS811_and_BME280\app\..\framework\Utils\Lists\
#        -I
#        C:\proj\Esel\KL16_SMAC_MQXLite_CCS811_and_BME280\app\..\framework\Utils\FunctionLib\
#        -I
#        C:\proj\Esel\KL16_SMAC_MQXLite_CCS811_and_BME280\app\..\framework\Utils\SecLib\
#        -I
#        C:\proj\Esel\KL16_SMAC_MQXLite_CCS811_and_BME280\app\..\framework\FSCI\Interface\
#        -I
#        C:\proj\Esel\KL16_SMAC_MQXLite_CCS811_and_BME280\app\..\framework\FSCI\Source\
#        -I
#        C:\proj\Esel\KL16_SMAC_MQXLite_CCS811_and_BME280\app\..\framework\Panic\Interface\
#        -I
#        C:\proj\Esel\KL16_SMAC_MQXLite_CCS811_and_BME280\app\..\framework\SerialManager\Interface\
#        -I
#        C:\proj\Esel\KL16_SMAC_MQXLite_CCS811_and_BME280\app\..\framework\MemManager\Interface\
#        -I
#        C:\proj\Esel\KL16_SMAC_MQXLite_CCS811_and_BME280\app\..\framework\TimersManager\Interface\
#        -I
#        C:\proj\Esel\KL16_SMAC_MQXLite_CCS811_and_BME280\app\..\framework\TimersManager\Source\
#        -I
#        C:\proj\Esel\KL16_SMAC_MQXLite_CCS811_and_BME280\app\..\framework\Messaging\Interface\
#        -I
#        C:\proj\Esel\KL16_SMAC_MQXLite_CCS811_and_BME280\app\..\framework\RNG\Interface\
#        -I
#        C:\proj\Esel\KL16_SMAC_MQXLite_CCS811_and_BME280\app\..\framework\RNG\Source\
#        -I
#        C:\proj\Esel\KL16_SMAC_MQXLite_CCS811_and_BME280\app\..\ieee_802_15_4\Phy\Interface\
#        -I
#        C:\proj\Esel\KL16_SMAC_MQXLite_CCS811_and_BME280\app\..\ieee_802_15_4\SMAC\Interface\
#        -I
#        C:\proj\Esel\KL16_SMAC_MQXLite_CCS811_and_BME280\app\..\drv\Portable\ADC\Interface\
#        -I
#        C:\proj\Esel\KL16_SMAC_MQXLite_CCS811_and_BME280\app\..\drv\Portable\BME\Interface\
#        -I
#        C:\proj\Esel\KL16_SMAC_MQXLite_CCS811_and_BME280\app\..\drv\Portable\Flash\Interface\
#        -I
#        C:\proj\Esel\KL16_SMAC_MQXLite_CCS811_and_BME280\app\..\drv\Portable\I2C\Interface\
#        -I
#        C:\proj\Esel\KL16_SMAC_MQXLite_CCS811_and_BME280\app\..\drv\Portable\LED\Interface\
#        -I
#        C:\proj\Esel\KL16_SMAC_MQXLite_CCS811_and_BME280\app\..\drv\Portable\LLWU\Interface\
#        -I
#        C:\proj\Esel\KL16_SMAC_MQXLite_CCS811_and_BME280\app\..\drv\Portable\LPTMR\Interface\
#        -I
#        C:\proj\Esel\KL16_SMAC_MQXLite_CCS811_and_BME280\app\..\drv\Portable\SMC\Interface\
#        -I
#        C:\proj\Esel\KL16_SMAC_MQXLite_CCS811_and_BME280\app\..\drv\Portable\MCG\Interface\
#        -I
#        C:\proj\Esel\KL16_SMAC_MQXLite_CCS811_and_BME280\app\..\drv\Portable\Reset\
#        -On
#    Locale       =  Japanese_Japan.932
#    List file    =  
#        C:\proj\Esel\KL16_SMAC_MQXLite_CCS811_and_BME280\app\kl16z128_eslora
#        MQXLite\List\mqx_tasks.lst
#    Object file  =  
#        C:\proj\Esel\KL16_SMAC_MQXLite_CCS811_and_BME280\app\kl16z128_eslora
#        MQXLite\Obj\mqx_tasks.o
#
###############################################################################

C:\proj\Esel\KL16_SMAC_MQXLite_CCS811_and_BME280\app\Sources\mqx_tasks.c
      1          /* ###################################################################
      2          **     Filename    : mqx_tasks.c
      3          **     Project     : ProcessorExpert
      4          **     Processor   : MKL26Z128VLL4
      5          **     Component   : Events
      6          **     Version     : Driver 01.00
      7          **     Compiler    : IAR ARM C Compiler
      8          **     Date/Time   : 2013-05-22, 16:17, # CodeGen: 0
      9          **     Abstract    :
     10          **         This is user's event module.
     11          **         Put your event handler code here.
     12          **     Settings    :
     13          **     Contents    :
     14          **         PExTask - void PExTask(uint32_t task_init_data);
     15          **
     16          ** ###################################################################*/
     17          /*!
     18          ** @file mqx_tasks.c
     19          ** @version 01.00
     20          ** @date 2013-05-22, 16:17, # CodeGen: 0
     21          ** @brief
     22          **         This is user's event module.
     23          **         Put your event handler code here.
     24          */
     25          /*!
     26          **  @addtogroup mqx_tasks_module mqx_tasks module documentation
     27          **  @{
     28          */
     29          /* MODULE mqx_tasks */
     30          
     31          #include "Cpu.h"
     32          #include "Events.h"
     33          #include "mqx_tasks.h"
     34          
     35          #ifdef __cplusplus
     36          extern "C" {
     37          #endif
     38          
     39          
     40          /* User includes (#include below this line is not maintained by Processor Expert) */
     41          extern void MainThreadWrapper(void const *argument);
     42          
     43          /*
     44          ** ===================================================================
     45          **     Event       :  PExTask (module mqx_tasks)
     46          **
     47          **     Component   :  Task1 [MQXLite1_task]
     48          **     Description :
     49          **         MQX task routine. The routine is generated into mqx_tasks.c
     50          **         file.
     51          **     Parameters  :
     52          **         NAME            - DESCRIPTION
     53          **         task_init_data  -
     54          **     Returns     : Nothing
     55          ** ===================================================================
     56          */
     57          void PExTask(uint32_t task_init_data)
     58          {
     59              while(1)
     60              {
     61                  /* Write your code here ... */
     62                  MainThreadWrapper((void const*)task_init_data);
     63              }
     64          }
     65          
     66          /* END mqx_tasks */
     67          
     68          #ifdef __cplusplus
     69          }  /* extern "C" */
     70          #endif
     71          
     72          /*!
     73          ** @}
     74          */
     75          /*
     76          ** ###################################################################
     77          **
     78          **     This file was created by Processor Expert 10.2 [05.06]
     79          **     for the Freescale Kinetis series of microcontrollers.
     80          **
     81          ** ###################################################################
     82          */

   Maximum stack usage in bytes:

   .cstack Function
   ------- --------
       8   PExTask
         8   -> MainThreadWrapper


   Section sizes:

   Bytes  Function/Label
   -----  --------------
      12  PExTask

 
 12 bytes in section .text
 
 12 bytes of CODE memory

Errors: none
Warnings: none
