###############################################################################
#
# IAR ANSI C/C++ Compiler V7.70.1.11437/W32 for ARM       11/May/2018  20:20:19
# Copyright 1999-2016 IAR Systems AB.
#
#    Cpu mode     =  thumb
#    Endian       =  little
#    Source file  =  
#        C:\proj\Esel\KL16_SMAC_MQXLite_CCS811_and_BME280\app\Sources\ProcessorExpert.c
#    Command line =  
#        C:\proj\Esel\KL16_SMAC_MQXLite_CCS811_and_BME280\app\Sources\ProcessorExpert.c
#        --preprocess
#        "C:\proj\Esel\KL16_SMAC_MQXLite_CCS811_and_BME280\app\kl16z128_eslora
#        MQXLite\List" -lcN
#        "C:\proj\Esel\KL16_SMAC_MQXLite_CCS811_and_BME280\app\kl16z128_eslora
#        MQXLite\List" -o
#        "C:\proj\Esel\KL16_SMAC_MQXLite_CCS811_and_BME280\app\kl16z128_eslora
#        MQXLite\Obj" --no_cse --no_unroll --no_inline --no_code_motion
#        --no_tbaa --no_clustering --no_scheduling --debug --endian=little
#        --cpu=Cortex-M0+ -e --fpu=None --dlib_config "C:\Program Files
#        (x86)\IAR Systems\Embedded Workbench
#        7.5\arm\INC\c\DLib_Config_Normal.h" -I
#        C:\proj\Esel\KL16_SMAC_MQXLite_CCS811_and_BME280\app\Interface\ -I
#        C:\proj\Esel\KL16_SMAC_MQXLite_CCS811_and_BME280\app\Sources\ -I
#        C:\proj\Esel\KL16_SMAC_MQXLite_CCS811_and_BME280\app\..\MQXLITE\include\
#        -I
#        C:\proj\Esel\KL16_SMAC_MQXLite_CCS811_and_BME280\app\..\MQXLITE\config\
#        -I
#        C:\proj\Esel\KL16_SMAC_MQXLite_CCS811_and_BME280\app\..\MQXLITE\psp\cortex_m\
#        -I
#        C:\proj\Esel\KL16_SMAC_MQXLite_CCS811_and_BME280\app\..\MQXLITE\psp\cortex_m\compiler\iar\
#        -I
#        C:\proj\Esel\KL16_SMAC_MQXLite_CCS811_and_BME280\app\..\drv\Generated_Code\
#        -I
#        C:\proj\Esel\KL16_SMAC_MQXLite_CCS811_and_BME280\app\..\drv\PExSupport\Kinetis\
#        -I
#        C:\proj\Esel\KL16_SMAC_MQXLite_CCS811_and_BME280\app\..\framework\OSAbstraction\MQXLite\Interface\
#        -I
#        C:\proj\Esel\KL16_SMAC_MQXLite_CCS811_and_BME280\app\..\framework\RNG\Interface\
#        -I
#        C:\proj\Esel\KL16_SMAC_MQXLite_CCS811_and_BME280\app\..\framework\Common\
#        -I
#        C:\proj\Esel\KL16_SMAC_MQXLite_CCS811_and_BME280\app\..\framework\Utils\Lists\
#        -I
#        C:\proj\Esel\KL16_SMAC_MQXLite_CCS811_and_BME280\app\..\framework\Utils\FunctionLib\
#        -I
#        C:\proj\Esel\KL16_SMAC_MQXLite_CCS811_and_BME280\app\..\framework\Utils\SecLib\
#        -I
#        C:\proj\Esel\KL16_SMAC_MQXLite_CCS811_and_BME280\app\..\framework\FSCI\Interface\
#        -I
#        C:\proj\Esel\KL16_SMAC_MQXLite_CCS811_and_BME280\app\..\framework\FSCI\Source\
#        -I
#        C:\proj\Esel\KL16_SMAC_MQXLite_CCS811_and_BME280\app\..\framework\Panic\Interface\
#        -I
#        C:\proj\Esel\KL16_SMAC_MQXLite_CCS811_and_BME280\app\..\framework\SerialManager\Interface\
#        -I
#        C:\proj\Esel\KL16_SMAC_MQXLite_CCS811_and_BME280\app\..\framework\MemManager\Interface\
#        -I
#        C:\proj\Esel\KL16_SMAC_MQXLite_CCS811_and_BME280\app\..\framework\TimersManager\Interface\
#        -I
#        C:\proj\Esel\KL16_SMAC_MQXLite_CCS811_and_BME280\app\..\framework\TimersManager\Source\
#        -I
#        C:\proj\Esel\KL16_SMAC_MQXLite_CCS811_and_BME280\app\..\framework\Messaging\Interface\
#        -I
#        C:\proj\Esel\KL16_SMAC_MQXLite_CCS811_and_BME280\app\..\framework\RNG\Interface\
#        -I
#        C:\proj\Esel\KL16_SMAC_MQXLite_CCS811_and_BME280\app\..\framework\RNG\Source\
#        -I
#        C:\proj\Esel\KL16_SMAC_MQXLite_CCS811_and_BME280\app\..\ieee_802_15_4\Phy\Interface\
#        -I
#        C:\proj\Esel\KL16_SMAC_MQXLite_CCS811_and_BME280\app\..\ieee_802_15_4\SMAC\Interface\
#        -I
#        C:\proj\Esel\KL16_SMAC_MQXLite_CCS811_and_BME280\app\..\drv\Portable\ADC\Interface\
#        -I
#        C:\proj\Esel\KL16_SMAC_MQXLite_CCS811_and_BME280\app\..\drv\Portable\BME\Interface\
#        -I
#        C:\proj\Esel\KL16_SMAC_MQXLite_CCS811_and_BME280\app\..\drv\Portable\Flash\Interface\
#        -I
#        C:\proj\Esel\KL16_SMAC_MQXLite_CCS811_and_BME280\app\..\drv\Portable\I2C\Interface\
#        -I
#        C:\proj\Esel\KL16_SMAC_MQXLite_CCS811_and_BME280\app\..\drv\Portable\LED\Interface\
#        -I
#        C:\proj\Esel\KL16_SMAC_MQXLite_CCS811_and_BME280\app\..\drv\Portable\LLWU\Interface\
#        -I
#        C:\proj\Esel\KL16_SMAC_MQXLite_CCS811_and_BME280\app\..\drv\Portable\LPTMR\Interface\
#        -I
#        C:\proj\Esel\KL16_SMAC_MQXLite_CCS811_and_BME280\app\..\drv\Portable\SMC\Interface\
#        -I
#        C:\proj\Esel\KL16_SMAC_MQXLite_CCS811_and_BME280\app\..\drv\Portable\MCG\Interface\
#        -I
#        C:\proj\Esel\KL16_SMAC_MQXLite_CCS811_and_BME280\app\..\drv\Portable\Reset\
#        -On
#    Locale       =  Japanese_Japan.932
#    List file    =  
#        C:\proj\Esel\KL16_SMAC_MQXLite_CCS811_and_BME280\app\kl16z128_eslora
#        MQXLite\List\ProcessorExpert.lst
#    Object file  =  
#        C:\proj\Esel\KL16_SMAC_MQXLite_CCS811_and_BME280\app\kl16z128_eslora
#        MQXLite\Obj\ProcessorExpert.o
#
###############################################################################

C:\proj\Esel\KL16_SMAC_MQXLite_CCS811_and_BME280\app\Sources\ProcessorExpert.c
      1          /* ###################################################################
      2          **     Filename    : ProcessorExpert.c
      3          **     Project     : ProcessorExpert
      4          **     Processor   : MKL26Z128VLL4
      5          **     Version     : Driver 01.01
      6          **     Compiler    : IAR ARM C Compiler
      7          **     Date/Time   : 2013-08-16, 15:33, # CodeGen: 29
      8          **     Abstract    :
      9          **         Main module.
     10          **         This module contains user's application code.
     11          **     Settings    :
     12          **     Contents    :
     13          **         No public methods
     14          **
     15          ** ###################################################################*/
     16          /*!
     17          ** @file ProcessorExpert.c
     18          ** @version 01.01
     19          ** @brief
     20          **         Main module.
     21          **         This module contains user's application code.
     22          */
     23          /*!
     24          **  @addtogroup ProcessorExpert_module ProcessorExpert module documentation
     25          **  @{
     26          */
     27          /* MODULE ProcessorExpert */
     28          #include "Cpu.h"
     29          #include "Events.h"
     30          #include "mqx_tasks.h"
     31          #include "MQXLite1.h"
     32          #include "SystemTimer1.h"
     33          #include "StackTimer.h"
     34          #include "UARTA.h"
     35          #include "UARTB.h"
     36          #include "SPISlave.h"
     37          #include "I2CDriver.h"
     38          #include "DataAvailablePin.h"
     39          #include "PitTimeStamp.h"
     40          #include "LED1.h"
     41          #include "LED2.h"
     42          #include "RealTimeClock.h"
     43          #include "PE_Types.h"
     44          #include "PE_Error.h"
     45          #include "PE_Const.h"
     46          #include "IO_Map.h"
     47          
     48          /* User includes (#include below this line is not maintained by Processor Expert) */
     49          #ifdef INC_FREERTOS_H
     50          extern void FreeRTOSmain(void);
     51          #endif
     52          
     53          /*lint -save  -e970 Disable MISRA rule (6.3) checking. */
     54          int main(void)
     55          /*lint -restore Enable MISRA rule (6.3) checking. */
     56          {
     57              /* Write your local variable definition here */
     58          
     59              /*** Processor Expert internal initialization. DON'T REMOVE THIS CODE!!! ***/
     60              PE_low_level_init();
     61              /*** End of Processor Expert internal initialization.                    ***/
     62          
     63              /* Write your code here */
     64          
     65          #ifdef INC_FREERTOS_H
     66              FreeRTOSmain();
     67          #endif
     68          
     69              /*** Don't write any code pass this line, or it will be deleted during code generation. ***/
     70          
     71              /*** RTOS startup code. Macro PEX_RTOS_START is defined by the RTOS component. DON'T MODIFY THIS CODE!!! ***/
     72          #ifdef PEX_RTOS_START
     73              PEX_RTOS_START();                  /* Startup of the selected RTOS. Macro is defined by the RTOS component. */
     74          #endif
     75              /*** End of RTOS startup code.  ***/
     76          
     77              /*** Processor Expert end of main routine. DON'T MODIFY THIS CODE!!! ***/
     78              for(;;){}
     79              /*** Processor Expert end of main routine. DON'T WRITE CODE BELOW!!! ***/
     80          } /*** End of main routine. DO NOT MODIFY THIS TEXT!!! ***/
     81          
     82          /* END ProcessorExpert */
     83          /*!
     84          ** @}
     85          */
     86          /*
     87          ** ###################################################################
     88          **
     89          **     This file was created by Processor Expert 10.3 [05.09]
     90          **     for the Freescale Kinetis series of microcontrollers.
     91          **
     92          ** ###################################################################
     93          */

   Maximum stack usage in bytes:

   .cstack Function
   ------- --------
       8   main
         8   -> PE_low_level_init
         8   -> _mqxlite


   Section sizes:

   Bytes  Function/Label
   -----  --------------
      12  main

 
 12 bytes in section .text
 
 12 bytes of CODE memory

Errors: none
Warnings: none
